%!PS-Adobe-3.0 EPSF-3.0
%%Creator: GIMP PostScript file plugin V 1,17 by Peter Kirchgessner
%%Title: heartbleed.eps
%%CreationDate: Sat Apr 12 13:26:32 2014
%%DocumentData: Clean7Bit
%%LanguageLevel: 2
%%Pages: 1
%%BoundingBox: 14 14 142 169
%%EndComments
%%BeginProlog
% Use own dictionary to avoid conflicts
10 dict begin
%%EndProlog
%%Page: 1 1
% Translate for offset
14.173228346456694 14.173228346456694 translate
% Translate to begin of first scanline
0 154.49234534832709 translate
127.55905511811025 -154.49234534832709 scale
% Image geometry
341 413 8
% Transformation matrix
[ 341 0 0 413 0 0 ]
% Strings to hold RGB-samples per scanline
/rstr 341 string def
/gstr 341 string def
/bstr 341 string def
{currentfile /ASCII85Decode filter /RunLengthDecode filter rstr readstring pop}
{currentfile /ASCII85Decode filter /RunLengthDecode filter gstr readstring pop}
{currentfile /ASCII85Decode filter /RunLengthDecode filter bstr readstring pop}
true 3
%%BeginData:        43667 ASCII Bytes
colorimage
JcC<$XT*e~>
JcC<$XT*e~>
JcC<$XT*e~>
JcC<$XT*e~>
JcC<$XT*e~>
JcC<$XT*e~>
JcC<$XT*e~>
JcC<$XT*e~>
JcC<$XT*e~>
JcC<$XT*e~>
JcC<$XT*e~>
JcC<$XT*e~>
[JpL*mGQdKbKIcs\Hg!pbKnu!mIGi.q#CB]s4d_&bKIcs\Hg-tbLkV3mImsfJ,~>
[JpKh^Q3kP5X6Id!!aW35Yur[^X%K2q#CB/s*k,I5X6Id!!b2C5]D4F^YcI!J,~>
[JpKh^Q3kP5X6Id!!aW35Yur[^X%K2q#CB/s*k,I5X6Id!!b2C5]D4F^YcI!J,~>
]Di$2mG-11jgbN2bM;@UK`;2GjkS%rjgbK:e)9W)s*t~>
]Di$&^OKWFjT#E+5_#upK`;2$T79*KjT#BJ@#r(6s*t~>
]Di$&^OKWFjT#E+5_#upK`;2$T79*KjT#BJ@#r(6s*t~>
^]+E5l.F#1\HBOkh!L(#"7=me^"^("`n9PQ^]/f~>
^]+E)YAc2M!!<d/J%psB"2B=N&DI0e0Q=5a^]/f~>
^]+E)YAc2M!!<d/J%psB"2B=N&DI0e0Q=5a^]/f~>
_Z'].fZ)CN"23%=p6>RYo&.^>\H9e+o"tEW~>
_Z'\`E%o`@!t\:ihj"-Bc]:?>!!4j(cbf^4~>
_Z'\`E%o`@!t\:ihj"-Bc]:?>!!4j(cbf^4~>
`W$#(e%Nu9!lim`Rf<H[fYYkC!lEU\`W(G~>
`W$"C?kCN^!\eT>Rf<H8E$3@)![)I.`W(G~>
`W$"C?kCN^!\eT>Rf<H8E$3@)![)I.`W(G~>
aSu>4fY,;8!lEadT`5)afYYY=!lEU`aT$b~>
aSu=fE"L"h![*!MT`5)>E$3.#![)I>aT$b~>
aSu=fE"L"h![*!MT`5)>E$3.#![)I>aT$b~>
bPqY@i5WRC!lj@!VZ-_pi5WRC!lj@!bQ!(~>
bPqY4O"e?L!\g88VZ-_dO"e?L!\g88bQ!(~>
bPqY4O"e?L!\g88VZ-_dO"e?L!\g88bQ!(~>
c2Rk=e%NE)!km(VWrE+ee%<-l^"E&'s*t~>
c2Rk&?kBsN!YAbsWrE+7@(QC?&9-OOs*t~>
c2Rk&?kBsN!YAbsWrE+7@(QC?&9-OOs*t~>
ci4%5bI4q^bNZ20!Th>0\H11Hci8L~>
ci4$\5dgXn5d.?j!M;'S!!-KBci8L~>
ci4$\5dgXn5d.?j!M;'S!!-KBci8L~>
dJj77bHeYZ_WA-(!rLomZFL"ZmEtra~>
dJj6^5dC@j+J6"?!q20mZ2anj^X<(3~>
dJj6^5dC@j+J6"?!q20mZ2anj^X<(3~>
e,KI9bHAAV_WA9,!rLcdY.4SVmF2)c~>
e,KH`5ct(f+J6.C!q1UMXoJJf^XN45~>
e,KH`5ct(f+J6.C!q1UMXoJJf^XN45~>
ec,[;bGr)R_WAE0!rLcdWjr/Rp=91n~>
ec,Zb5cOeb+J6:G!q1UMWW3&bhpqaW~>
ec,Zb5cOeb+J6:G!q1UMWW3&bhpqaW~>
fDbmFe#'YV_Wef7!Th1q\H1@[fDg@~>
fDbm/@&<o)+KrNZ!M:L3!!.'-fDg@~>
fDbm/@&<o)+KrNZ!M:L3!!.'-fDg@~>
f`)!-]q`+=bO*1H!U[b!\H0D%f`-I~>
f`(u%&>K4+5ek29!P]bP!!*Xlf`-I~>
f`(u%&>K4+5ek29!P]bP!!*Xlf`-I~>
gA_3@`h0dBe+Uf]!VX^/\H0nEgAc[~>
gA_2g0V8=G@,K!(!T-/7!!,@2gAc[~>
gA_2g0V8=G@,K!(!T-/7!!,@2gAc[~>
g]%9+S@J[6gr]QsqqR[O!8Q?/J,~>
g]%7mS,`R$J'%]kmsgf,!.Wc'J,~>
g]%7mS,`R$J'%]kmsgf,!.Wc'J,~>
h>[NH`gO@<`pM"M!U[al\H0nIh>`!~>
h>[N%0UVnA0Ybj3!P]bF!!,@Bh>`!~>
h>[N%0UVnA0Ybj3!P]bF!!,@Bh>`!~>
hZ!T6Q+6qJqp>?Dqp1S=!PRaSs*t~>
hZ!S:PlLi(n'M(8mnf;M!>)Hks*t~>
hZ!S:PlLi(n'M(8mnf;M!>)Hks*t~>
i;WiTe!%<C_X5eO!U7:]\H(:>s*t~>
i;WiH@$:Qk+MZA)!O!&u!!$uqs*t~>
i;WiH@$:Qk+MZA)!O!&u!!$uqs*t~>
iVrrP`fR_3f_a8"!W13)\H0_IiW"E~>
iVrr90TZ88E:;BX!UijH!!+eBiW"E~>
iVrr90TZ88E:;BX!UijH!!+eBiW"E~>
ir9&M]oKW(_Xc@Z!U7:X\H0S<ir=N~>
ir9&*&<6_k+OA^?!O!&p!!+4gir=N~>
ir9&*&<6_k+OA^?!O!&p!!+4gir=N~>
j8T,@MR``Bg]%<OfSd9@^$Xk[J,~>
j8T+OM?!X+g]%<CE/O\s&AR9*J,~>
j8T+OM?!X+g]%<CE/O\s&AR9*J,~>
jSo5ALq*Q0qqh>Ro#?Kr!9N;AJ,~>
jSo4PL]@H@n)"'FcS1.T!2&?PJ,~>
jSo4PL]@H@n)"'FcS1.T!2&?PJ,~>
jo5>5L:I>umGS!Fjh6DZ!9N>BJ,~>
jo5="L&_5c^Yo+mT+H_W!2&BQJ,~>
jo5="L&_5c^Yo+mT+H_W!2&BQJ,~>
k5PG1K=M!;ir9#-K=M!Dk5Tr~>
k5PEhK)bn$ir9!dK)bnDk5Tr~>
k5PEhK)bn$ir9!dK)bnDk5Tr~>
kPkP2J[kg)qr[nZp;VZo!9NDDJ,~>
kPkNiJH,^9n)jWNh_9T]!2&HSJ,~>
kPkNiJH,^9n)jWNh_9T]!2&HSJ,~>
kl1Y@J[tfk!Q+EkrrMN#J[tfk!9NGEJ,~>
kl1XDJH5]M!?f_PrrKkGJH5]M!2&KTJ,~>
kl1XDJH5]M!?f_PrrKkGJH5]M!2&KTJ,~>
l2LbFJ[t`i!PRU[rrD/3\bru<l084u~>
l2LaUJH5WK!>(mgrrA[B!;lfsYNc(;~>
l2LaUJH5WK!>(mgrrA[B!;lfsYNc(;~>
lMgkKJ[tWf!8Qr@!7QM0qmca@o'67*~>
lMgjfJH5NH!.XA8!+:?XqZ$X.cg(O\~>
lMgjfJH5NH!.XA8!+:?XqZ$X.cg(O\~>
li."V]n*`i\H(+IrrN#?J[tTe!PS3ms*t~>
li."3&:jiW!!$EqrrMRRJH5KG!>+/Ss*t~>
li."3&:jiW!!$EqrrMRRJH5KG!>+/Ss*t~>
m/I+`_L]8l\H0_Io)Aaa`dt\p\H0_Im/MS~>
m/I+T+FsOe!!+eBo)AaJ0S'5u!!+eBm/MS~>
m/I+T+FsOe!!+eBo)AaJ0S'5u!!+eBm/MS~>
m/I(/J[tHa!QOj*rrM](J[tHa!7U<7J,~>
m/I&NJH5?C!ANF'rrLFWJH5?C!+>0nJ,~>
m/I&NJH5?C!ANF'rrLFWJH5?C!+>0nJ,~>
mJd1=J[tB_!PS'trrM](J[tB_!9!8EJ,~>
mJd0*JH59A!>*TNrrLFWJH59A!0?OIJ,~>
mJd0*JH59A!>*TNrrLFWJH59A!0?OIJ,~>
mf*:SJ[t<]!PS(!rrD/3\a[-0o'ZO.~>
mf*:%JH53?!>*TPrrA[B!:TsgcgLg`~>
mf*:%JH53?!>*TPrrA[B!:TsgcgLg`~>
n,EFc]u@Mb_TUTejnS9Dg]>aE^:=9XmJ?h_jh82,bL>8)q!J:Hgt9f``OQ#hqsXQ8~>
n,EFW&B+VP+@'mrTD62$J,rJ3^&S0F^\[s1T=k4,5[],'pqHs(J8dab`;fomn*g:,~>
n,EFW&B+VP+@'mrTD62$J,rJ3^&S0F^\[s1T=k4,5[],'pqHs(J8dab`;fomn*g:,~>
n,EC6aghPfceRscmf*C[jk.Sh\H(ahrrD/s\HC%-l1XQF"8hNAbK.3of^Jij~>
n,EAaaT)GT:k6=Lmf*C8T5ZL#!!&YhrrA\-!!>K*YM\dJ"7O!T5f`p*E:<gW~>
n,EAaaT)GT:k6=Lmf*C8T5ZL#!!&YhrrA\-!!>K*YM\dJ"7O!T5f`p*E:<gW~>
nG`LQbII\kf^@l$"8h3/]u7G]jo58[ji"\3_UIcHjo5DHfYYhB!:B:UJ,~>
nG`Klb5_SdE51N7"7Mji&B"PKTDnijT>U^3+CMDAjo5CcE$3=(!5J%'J,~>
nG`Klb5_SdE51N7"7Mji&B"PKTDnijT>U^3+CMDAjo5CcE$3=(!5J%'J,~>
nc&Xe^!=.i_V"G9rrVH6]uISajo=G^\H9Iso%sBJo%:Y$\H'M9s*t~>
nc&XY&C(7W+E5Z`rrTB3&B4\OTDtP'!!3^Ncee['cYsH@!!"/2s*t~>
nc&XY&C(7W+E5Z`rrTB3&B4\OTDtP'!!3^Ncee['cYsH@!!"/2s*t~>
nc&U<caa)&l.H":jib]T!7T!!!RL#_rrM6)caa&2nc++~>
nc&SscN!uBYLrjUT0UEs!+<hI!DouPrrJ`WcN!rpnc++~>
nc&SscN!uBYLrjUT0UEs!+<hI!DouPrrJ`WcN!rpnc++~>
o)A^WdCB=le+V;k!qt*VP.:Y-h"K7t!V4^e\H0D;o)F4~>
o)A^)d/X4Z@,KK6!oIAsOoPOpJD\lV!RG0$!!*Ygo)F4~>
o)A^)d/X4Z@,KK6!oIAsOoPOpJD\lV!RG0$!!*Ygo)F4~>
o)A^5e%#Onh##Iu!rLcdQFR(6jnmF)!VY!j\H'tHs*t~>
o)A\Tdf9F\JFCkb!q1XNQ2gt/TC:/,!T.;5!!#jds*t~>
o)A\Tdf9F\JFCkb!q1XNQ2gt/TC:/,!T.;5!!#jds*t~>
oD\gPe%#M.qoo'AqqSlR\H0S/bPqV:e'ki-mIU@.~>
oD\f_df9DVn'(e5mskt<!!+47bPqV#@+,)U^[qJU~>
oD\f_df9DVn'(e5mskt<!!+47bPqV#@+,)U^[qJU~>
oD\g-e[Y_(o#Uh4qqSlV\H0D*a8Z2.`mqU"bObaa~>
oD\e5eGoV8ccH+fmskt@!!*Y'a8Z1T0\$.'5kG#+~>
oD\e5eGoV8ccH+fmskt@!!*Y'a8Z1T0\$.'5kG#+~>
o`"pQf!tgpji%0"qq.UQ!kmCd`;]kn^"0^omI^F/~>
o`"o`ec5^^T>^a1mr4s#!YBnN`;]jg&Cpg]^\%PV~>
o`"o`ec5^^T>^a1mr4s#!YBnN`;]jg&Cpg]^\%PV~>
o`"p.f=:q*p;-b0o#mi>!RLJUrrM]1f=:n)o`'F~>
o`"n6f)Ph:hnf<ncTn9+!Dq[irrLG"f)Pe9o`'F~>
o`"n6f)Ph:hnf<ncTn9+!Dq[irrLG"f)Pe9o`'F~>
p&>$Rf=:n:^&J,p]r8IB_X>,;!8,o6!:BIZJ,~>
p&>#af)Pf$^&J,*&?#R0+MYVi!-$Ni!5J4,J,~>
p&>#af)Pf$^&J,*&?#R0+MYVi!-$Ni!5J4,J,~>
p&>$/fsq-sl+?rrqpVRU!SI:]rrD05\H'hGs*t~>
p&>"7f`2$aYIjf8mpN-q!H@M>rrA\D!!#:Ws*t~>
p&>"7f`2$aYIjf8mpN-q!H@M>rrA\D!!#:Ws*t~>
pAY-Wfsq-so!n]#m_,d6!QO]?rrM](fsq+VpA]X~>
pAY,rf`2$aca`uU^C[OJ!AMj0rrLFWf`2$0pA]X~>
pAY,rf`2$aca`uU^C[OJ!AMj0rrLFWf`2$0pA]X~>
pAY-9g:77(p9su%qp2LW!SI:XrrM](g:744pA]X~>
pAY+Xg&M.-hmWOcmng4g!H@M9rrLFWg&M+\pA]X~>
pAY+Xg&M.-hmWOcmng4g!H@M9rrLFWg&M+\pA]X~>
p\t6eg:77$qm6;'jh8%3!PRp-rrM](gUR?uqtL,@~>
p\t6Ng&M-rn$E#pT+J@0!>*#PrrLFWgAh6cn+Zj4~>
p\t6Ng&M-rn$E#pT+J@0!>*#PrrLFWgAh6cn+Zj4~>
p\t6GgUR?uo!/2qo#A,K!R(AFrrM](gUR=Gp]#a~>
p\t54gAh6cca!KNcS2d-!C6+YrrLFWgAh5Gp]#a~>
p\t54gAh6cca!KNcS2d-!C6+YrrLFWgAh5Gp]#a~>
p\t6,gUR=TYQ"Y#e$upggogYWjkI<G`qTL`~>
p\t4)gAh6"YQ"Xl@(61:J?JnPTA'>G0_bTt~>
p\t4)gAh6"YQ"Xl@(61:J?JnPTA'>G0_bTt~>
q#:?YgUR=GXT&:^]=@sUl)ambgtT@>o(`68~>
q#:>tgAh5GXT&9m])VjCYH7a(JD1&(chRNj~>
q#:>tgAh5GXT&9m])VjCYH7a(JD1&(chRNj~>
q#:?CgpmF6WrE+j]tV#X`q$/0!6a0.!8.)HJ,~>
q#:>%g].=^WrE+G&AA,F0[Hd!!'o<>!-%`5J,~>
q#:>%g].=^WrE+G&AA,F0[Hd!!'o<>!-%`5J,~>
q>UHlgpmI&ql0Srqo6F^!R(A>rrMi,h73O&q#>j~>
q>UH`g].?tn#?<fmkDNW!C6+QrrM!gh#IEtq#>j~>
q>UH`g].?tn#?<fmkDNW!C6+QrrM!gh#IEtq#>j~>
q>UHZgpmFQVuHepe&&Wqe#*-Fi7tjCo(i<9~>
q>UGug].>hVuHed@);mD@&Er(O5'^8ch[Tk~>
q>UGug].>hVuHed@);mD@&Er(O5'^8ch[Tk~>
q>UHDh73O7V#LGD`45m+V#LG<h73O<q>Ys~>
q>UG&h#IF_V#LF&_uKduV#LE[h#IFoq>Ys~>
q>UG&h#IF_V#LF&_uKduV#LE[h#IFoq>Ys~>
q>UH.hRN[#p7qWfji4h2jeMhUo%ghV`qfXb~>
q>UF+h>dQfhkU2OT>gj2T;2DdceSR$0_ta!~>
q>UF+h>dQfhkU2OT>gj2T;2DdceSR$0_ta!~>
qYpQ_h73O@U&P,SaghGcm\0X\e(qP7pA4f>~>
qYpQ1h#IG*U&P+baT)>Q^S1Z-@,1e_htmA'~>
qYpQ1h#IG*U&P+baT)>Q^S1Z-@,1e_htmA'~>
qYpQNhRN[#qk3rijh8mK!PS&srrDcK\H(afs*t~>
qYpPFh>dQfn"B[]T+K3H!>*SMrrCs4!!&Yfs*t~>
qYpPFh>dQfn"B[]T+K3H!>*SMrrCs4!!&Yfs*t~>
qYpQ8hRNXAT)Si^^!=.h^%.cp!7Tf8!71NAJ,~>
qYpOLh>dP+T)Si;&C(7V&C6sJ!+=X`!)WOlJ,~>
qYpOLh>dP+T)Si;&C(7V&C6sJ!+=X`!)WOlJ,~>
qu6ZnhRN[#qjm`fo"ED\!PS&prrDcL\H'>>s*t~>
qu6Zbh>dQfn"'IZcOeG'!>*SJrrCs5!!!T,s*t~>
qu6Zbh>dQfn"'IZcOeG'!>*SJrrCs5!!!T,s*t~>
qu6Z`hRNX8S,WN[^!aFl^%.Zm!6a60!:p$eJ,~>
qu6Z2h>dO`S,WN8&CLOZ&C6jG!'oB@!71QBJ,~>
qu6Z2h>dO`S,WN8&CLOZ&C6jG!'oB@!71QBJ,~>
qu6ZOhRNXWRf<EZ^!sRn^%.Wl!9N(J!9O+XJ,~>
qu6YGh>dQ%Rf<E7&C^[\&C6gF!2&*J!2'/gJ,~>
qu6YGh>dQ%Rf<E7&C^[\&C6gF!2&*J!2'/gJ,~>
qu6Z>hmia(R/[3X^"0^p^%.Qj!57:#!7UiFJ,~>
qu6X]hZ*X!R/[35&Cpg^&C6aD!"e#f!+>^(J,~>
qu6X]hZ*X!R/[35&Cpg^&C6aD!"e#f!+>^(J,~>
qu6Z0hmiaFQi@'If=:pqnsB@Ve).\9`r#dd~>
qu6X-hZ*Y;Qi@&Xf)Pg_c^4Y3@,Cqa0`1m#~>
qu6X-hZ*Y;Qi@&Xf)Pg_c^4Y3@,Cqa0`1m#~>
r;QcjhRNXWQN$sHfXV"QQN$sLhRWO`J,~>
r;QcSh>dQ%QN$rWfDkotQN$rgh>mHQJ,~>
r;QcSh>dQ%QN$rWfDkotQN$rgh>mHQJ,~>
r;Qc]hmia(PlCaFg:74FPlKUN!:B^aJ,~>
r;Qc#hZ*X!PlC`Ug&M,FPlKS?!5JI3J,~>
r;Qc#hZ*X!PlC`Ug&M,FPlKS?!5JI3J,~>
r;QcPhmia>PQ(X3gpmFHPQ(X/hmiaKr;V9~>
r;QbHhZ*XqPQ(Vjg].>HPQ(VZhZ*YKr;V9~>
r;QbHhZ*XqPQ(Vjg].>HPQ(VZhZ*YKr;V9~>
r;QcChmiaOP5bO2hRNX8P5bO?hmiaBr;V9~>
r;QanhZ*Y[P5bMih>dO`P5bNChZ*Y+r;V9~>
r;QanhZ*Y[P5bMih>dO`P5bNChZ*Y+r;V9~>
r;Qc?hmiaaP5bR[`o+B-c]S5-o&$tXbP_Bj~>
r;Qa^hZ*ZFP5bRO0]2p2:m(bXcee^&5lCY4~>
r;Qa^hZ*ZFP5bRO0]2p2:m(bXcee^&5lCY4~>
r;YZb!61-#!W0Ri\H0_IOT44K!64s:J,~>
r;YXS!&0N7!UgTZ!!+eBOT42<!&4?NJ,~>
r;YXS!&0N7!UgTZ!!+eBOT42<!&4?NJ,~>
rVllphmia9O8f4Nj1,3(p5f4RbMTl.s*t~>
rVlldhZ*XaO8f4+irB)khiId;5i2S>s*t~>
rVlldhZ*XaO8f4+irB)khiId;5i2S>s*t~>
rVllbhmiaFNrK+@jLG9YNrK+3hmiaarVqB~>
rVll4hZ*Y;NrK*Oj8]1pNrK)uhZ*ZFrVqB~>
rVll4hZ*Y;NrK*Oj8]1pNrK)uhZ*ZFrVqB~>
rVll^hmiaTNW0"-k.(KINW0"?hmiaSrVqB~>
rVll$hZ*YkNW/udjo>C3NW0!NhZ*YkrVqB~>
rVll$hZ*YkNW/udjo>C3NW0!NhZ*YkrVqB~>
rVllQhmiaaNW0%V_W\N1`f0otmbbPTmJ['8~>
rVlkIhZ*ZFNW0%J+Qre*0T?#3^Y]"k^]"1_~>
rVlkIhZ*ZFNW0%J+Qre*0T?#3^Y]"k^]"1_~>
rVllQhmn[F!:oBb!PS2crrDrR\H(F`s*t~>
rVlkIhZ/T7!70m0!>+.IrrDNF!!%NIs*t~>
rVlkIhZ/T7!70m0!>+.IrrDNF!!%NIs*t~>
rVllHi4/j2MZ3\3lF?oZMZ;SE!8RPQJ,~>
rVlk*huEaBMZ3[,l2UgfMZ;Q6!.XtIJ,~>
rVlk*huEaBMZ3[,l2UgfMZ;Q6!.XtIJ,~>
rVll@i4/j2M>mS!m(!,FM>mS!i4/jCrVqB~>
rVlj_huEaBM>mQ@li7#nM>mQ@huEb,rVqB~>
rVlj_huEaBM>mQ@li7#nM>mQ@huEb,rVqB~>
rVll@i4/j?M>mVM^$`E3_Y]2i!6a<2!71WDJ,~>
rVlj_huEarM>mV6&FKN!+Rb0e!'oHB!)WXoJ,~>
rVlj_huEarM>mV6&FKN!+Rb0e!'oHB!)WXoJ,~>
rVll@i4/jCM#RJ>m^W>gM#RJ(i4/j2rVqB~>
rVlj_huEb-M#RIYmJm75M#RH_huEaBrVqB~>
rVlj_huEb-M#RIYmJm75M#RH_huEaBrVqB~>
rVll2i4/jCL]7A'n@8PSL]7A0i4/j2rVqB~>
rVlj/huEb-L]7?^n,NH=L]7@)huEaBrVqB~>
rVlj/huEb-L]7?^n,NH=L]7@)huEaBrVqB~>
rVtcc!9o:=!W0b)\H'g-rrCj4\H'hOs*t~>
rVtaT!3_1X!Uh0%!!#9=rr@T-!!#:_s*t~>
rVtaT!3_1X!Uh0%!!#9=rr@T-!!#:_s*t~>
rVtcc!:GUA!:o`l!PS2]rrCj4\H'hOs*t~>
rVtaT!5F9g!716:!>+.Crr@T-!!#:_s*t~>
rVtaT!5F9g!716:!>+.Crr@T-!!#:_s*t~>
rVtcc!:GR@!8R4W!9o4;!8QMC!5e^7J,~>
rVtaT!5F6f!.a\A!3_+V!.`u-!$M7?J,~>
rVtaT!5F6f!.a\A!3_+V!.`u-!$M7?J,~>
rVtcc!:GO?!6b)H!7QW$!:JaTrVqB~>
rVtaT!5F3e!'p5X!+:K[!5ICkrVqB~>
rVtaT!5F3e!'p5X!+:K[!5ICkrVqB~>
rVtcc!:GO?!VX5%\H0SEK`;&?hmr^cJ,~>
rVtaT!5F3e!T+I`!!+52K`;%ehZ3WTJ,~>
rVtaT!5F3e!T+I`!!+52K`;%ehZ3WTJ,~>
rVtcc!:GL>!9s9h!:kdB!:JaTrVqB~>
rVtaT!5F0d!3c.t!7-;t!5ICkrVqB~>
rVtaT!5F0d!3c.t!7-;t!5ICkrVqB~>
rVtcc!:GI=!7UeT!8N2+!:JaTrVqB~>
rVtaT!5F-c!+>X'!.]\$!5ICkrVqB~>
rVtaT!5F-c!+>X'!.]\$!5ICkrVqB~>
rVtcc!:GI=!W0b3\H'g(rrDKE\c)PY~>
rVtaT!5F-c!Uh0/!!#98rrBgk!<)qJ~>
rVtaT!5F-c!Uh0/!!#98rrBgk!<)qJ~>
rVtcc!:GF<!:p*!!PS2XrrD!7\c)PY~>
rVtaT!5F*b!71TD!>+.>rrA,;!<)qJ~>
rVtaT!5F*b!71TD!>+.>rrA,;!<)qJ~>
rVtcc!:GF<!WUsS\H(lFrrN/Ti4/j2rVqB~>
rVtaT!5F*b!WR]L!!'3RrrN.MhuEaBrVqB~>
rVtaT!5F*b!WR]L!!'3RrrN.MhuEaBrVqB~>
rVtcc!:GF<s8N/D\^Q-0s8N)Si4/j2rVqB~>
rVtaT!5F*bs8N-c!+:BXs8N(LhuEaBrVqB~>
rVtaT!5F*bs8N-c!+:BXs8N(LhuEaBrVqB~>
rVtcc!8rG.s8N/o`qt>es8N)Si4/j2rVqB~>
rVtaT!0;^2s8N/X0^jSms8N(LhuEaBrVqB~>
rVtaT!0;^2s8N/X0^jSms8N(LhuEaBrVqB~>
rVll7i4/jCJcC<$qYpQNi4/j2rVqB~>
rVlj?huEb-JcC<$qYpPGhuEaBrVqB~>
rVlj?huEb-JcC<$qYpPGhuEaBrVqB~>
rVll@i4/jCJcC<$qYpQAi4/j2rVqB~>
rVlj_huEb-JcC<$qYpOlhuEaBrVqB~>
rVlj_huEb-JcC<$qYpOlhuEaBrVqB~>
rVll@i4/j?JcC<$qYpQ=i4/j6rVqB~>
rVlj_huEarJcC<$qYpO\huEaRrVqB~>
rVlj_huEarJcC<$qYpO\huEaRrVqB~>
rVll@i4/j2JcC<$qYpQ=i4/jCrVqB~>
rVlj_huEaBJcC<$qYpO\huEb,rVqB~>
rVlj_huEaBJcC<$qYpO\huEb,rVqB~>
rVllHi4/j2JcC<$qYpQ/i4/jCrVqB~>
rVlk*huEaBJcC<$qYpO,huEb,rVqB~>
rVlk*huEaBJcC<$qYpO,huEb,rVqB~>
rVllQi4/j$JcC<$qZ#H`!8RPQJ,~>
rVlkIhuE`gJcC<$qZ#FQ!.XtIJ,~>
rVlkIhuE`gJcC<$qZ#FQ!.XtIJ,~>
rVllQhmn=<JcGWI!;><\!:BabJ,~>
rVlkIhZ/6-JcGWI!8lZ6!5JL4J,~>
rVlkIhZ/6-JcGWI!8lZ6!5JL4J,~>
rVll^hmia\JcC<$r;QcbhmiaSrVqB~>
rVll$hZ*Z6JcC<$r;Qc3hZ*YkrVqB~>
rVll$hZ*Z6JcC<$r;Qc3hZ*YkrVqB~>
rVllbhmiaTJcC<$r;QcYhmia\rVqB~>
rVll4hZ*YkJcC<$r;QbhhZ*Z6rVqB~>
rVll4hZ*YkJcC<$r;QbhhZ*Z6rVqB~>
rVllghmiaFJcC<$r;QcPhmr[bJ,~>
rVllDhZ*Y;JcC<$r;QbIhZ3TSJ,~>
rVllDhZ*Y;JcC<$r;QbIhZ3TSJ,~>
r;YZb!8)l&JcGZJ!70T6!58=1J,~>
r;YXS!-!MhJcGZJ!)VSR!"f).J,~>
r;YXS!-!MhJcGZJ!)VSR!"f).J,~>
r;Qc1i4/j2JcC<$r;Qc6i4/j2r;V9~>
r;Qa.huEaBJcC<$r;Qa>huEaBr;V9~>
r;Qa.huEaBJcC<$r;Qa>huEaBr;V9~>
r;Qc?hmn=<JcG]K!;><\!71TCJ,~>
r;Qa^hZ/6-JcG]K!8lZ6!)WUnJ,~>
r;Qa^hZ/6-JcG]K!8lZ6!)WUnJ,~>
r;QcChmiaTJcC<$rr2u[hmiaBr;V9~>
r;QanhZ*YkJcC<$rr2tjhZ*Y+r;V9~>
r;QanhZ*YkJcC<$rr2tjhZ*Y+r;V9~>
r;QcPhmia>JcC<$rr2uIhmiaKr;V9~>
r;QbHhZ*XqJcC<$rr2t+hZ*YKr;V9~>
r;QbHhZ*XqJcC<$rr2t+hZ*YKr;V9~>
r;Qc]hmia,JcC<$rr2u3hmiaSr;V9~>
r;Qc#hZ*X1JcC<$rr2s0hZ*Ykr;V9~>
r;Qc#hZ*X1JcC<$rr2s0hZ*Ykr;V9~>
r;QcfhRNX[JcC<$!WVE@\blDW~>
r;QcCh>dQ5JcC<$!WT@[!;leH~>
r;QcCh>dQ5JcC<$!WT@[!;leH~>
qu>N`!8rG.Jc>cNe).\9_Ya@`~>
qu>LQ!0;^2Jc>cN@,Cqa+T)1h~>
qu>LQ!0;^2Jc>cN@,Cqa+T)1h~>
qu6Z>hmia,JcC<$!WTjj\H'tQs*t~>
qu6X]hZ*X1JcC<$!WN_g!!#jms*t~>
qu6X]hZ*X1JcC<$!WN_g!!#jms*t~>
qu6ZKhRNXWJcC?%!9r@N!9!bSJ,~>
qu6Y8h>dQ%JcC?%!3b5Z!0@$WJ,~>
qu6Y8h>dQ%JcC?%!3b5Z!0@$WJ,~>
qu6Z\hRNX8JcC?%!70N4!:p$eJ,~>
qu6Z"h>dO`JcC?%!)VMP!71QBJ,~>
qu6Z"h>dO`JcC?%!)VMP!71QBJ,~>
qu6ZihRN[#qgnd#rrDcK\bc>V~>
qu6ZRh>dQfmt(LlrrCs4!;c_G~>
qu6ZRh>dQfmt(LlrrCs4!;c_G~>
qYpQ8hRNXJJcCE'!8-/=!71NAJ,~>
qYpOLh>dPJJcCE'!-$cp!)WOlJ,~>
qYpOLh>dPJJcCE'!-$cp!)WOlJ,~>
qYpQJhRNX'JcCH(!W0Re\H(Ras*t~>
qYpP7h>dNuJcCH(!UgTV!!&)Vs*t~>
qYpP7h>dNuJcCH(!UgTV!!&)Vs*t~>
qYpQ[h73OMJcCK)!8u\D!:p!dJ,~>
qYpQ!h#IGYJcCK)!0>q9!71NAJ,~>
qYpQ!h#IGYJcCK)!0>q9!71NAJ,~>
q>]9]!6]rnLAq7jhRNX'q>Ys~>
q>]7N!'l,8LAq5rh>dNuq>Ys~>
q>]7N!'l,8LAq5rh>dNuq>Ys~>
q>UH@h73ORJcCQ+!9N%I!8.,IJ,~>
q>UFkh#IGiJcCQ+!2&'I!-%c6J,~>
q>UFkh#IGiJcCQ+!2&'I!-%c6J,~>
q>UHVh73O/JcCQ+!5dR&!:oscJ,~>
q>UGeh#IF?JcCQ+!$L(t!71K@J,~>
q>UGeh#IF?JcCQ+!$L(t!71K@J,~>
q>UHlgpmFQJcCW-!9N%I!5eO2J,~>
q>UH`g].>hJcCW-!2&'I!$M(:J,~>
q>UH`g].>hJcCW-!2&'I!$M(:J,~>
q#:??h73O/JcCW-!5dR&!8.)HJ,~>
q#:=jh#IF?JcCW-!$L(t!-%`5J,~>
q#:=jh#IF?JcCW-!$L(t!-%`5J,~>
q#:?UgpmFHJcC]/!8QA?!:opbJ,~>
q#:>dg].>HJcC]/!.`i)!71H?J,~>
q#:>dg].>HJcC]/!.`i)!71H?J,~>
p\t6,h73O&JcC`0!W0Rd\H'M@s*t~>
p\t4)h#IEtJcC`0!UgTU!!"/9s*t~>
p\t4)h#IEtJcC`0!UgTU!!"/9s*t~>
p\t6BgpmF?JcCc1!8-);!9!VOJ,~>
p\t5$g].>)JcCc1!-$]n!0?mSJ,~>
p\t5$g].>)JcCc1!-$]n!0?mSJ,~>
p\t6agpmI!qgnd/rrDcI\H)O$s*t~>
p\t6>g].?dmt(M#rrCs2!!)K^s*t~>
p\t6>g].?dmt(M#rrCs2!!)K^s*t~>
pAY-4gpmF6JcCi3!6a0.!7UZAJ,~>
pAY+Hg].=^JcCi3!'o<>!+>O#J,~>
pAY+Hg].=^JcCi3!'o<>!+>O#J,~>
pAY-SgUR=PJcCo5!9r7K!:BL[J,~>
pAY,bgAh5gJcCo5!3b,W!5J7-J,~>
pAY,bgAh5gJcCo5!3b,W!5J7-J,~>
p&>$*gpmF)JcCr6!W0Rc\H'YBs*t~>
p&>"'g].=.JcCr6!UgTT!!"_Gs*t~>
p&>"'g].=.JcCr6!UgTT!!"_Gs*t~>
p&>$IgUR=>JcCu7!8-&:!9NnRJ,~>
p&>#AgAh5(JcCu7!-$Zm!2&raJ,~>
p&>#AgAh5(JcCu7!-$Zm!2&raJ,~>
p&>'i^"g.!^%R$WQN$sQgUR=$o`'F~>
p&>']&DR6d&Dr'=QN$s"gAh3ro`'F~>
p&>']&DR6d&Dr'=QN$s"gAh3ro`'F~>
o`"p?gUR=-JcD&9!63d(!8R5HJ,~>
o`"o!gAh4=JcD&9!&3.-!.XY@J,~>
o`"o!gAh4=JcD&9!&3.-!.XY@J,~>
o`"pbg:74AJcD,;!8Q>>!PSC&s*t~>
o`"pKg&M,6JcD,;!.`f(!>+_ls*t~>
o`"pKg&M,6JcD,;!.`f(!>+_ls*t~>
oD\g>gUR?up4<74rrDWD\H(FVs*t~>
oD\eugAh6chgtfrrrCC!!!%N?s*t~>
oD\eugAh6chgtfrrrCC!!!%N?s*t~>
oD\gag:74,JcD5>!W0mk\H0D@oDa=~>
oD\gJg&M+<JcD5>!Uh_s!!*Z"oDa=~>
oD\gJg&M+<JcD5>!Uh_s!!*Z"oDa=~>
o)A^=g:74AJcD8?!8-#9!8R/FJ,~>
o)A\tg&M,6JcD8?!-$Wl!.XS>J,~>
o)A\tg&M,6JcD8?!-$Wl!.XS>J,~>
o)A^`g:76tnq$h4rrDK@\H0D@o)F4~>
o)A^Ig&M-bc[l+frrBgf!!*Z"o)F4~>
o)A^Ig&M-bc[l+frrBgf!!*Z"o)F4~>
nc&UAg:74'JcDAB!W0af\H(FTs*t~>
nc&T.g&M+,JcDAB!Uh/b!!%N=s*t~>
nc&T.g&M+,JcDAB!Uh/b!!%N=s*t~>
nc&Xe^"U!sfRa'qrrCC!\H'M9s*t~>
nc&XY&D@*aE.S%^rr>mL!!"/2s*t~>
nc&XY&D@*aE.S%^rr>mL!!"/2s*t~>
nG`LDfsq+NJcDJE!9MnE!9N_MJ,~>
nG`K<f`2#eJcDJE!2%pE!2&c\J,~>
nG`K<f`2#eJcDJE!2%pE!2&c\J,~>
nG`Od_V2O$^&*B\V#LJd^"U!sbO>I]~>
nG`OX+PHer&FY2MV#LJA&D@*a5k"`'~>
nG`OX+PHer&FY2MV#LJA&D@*a5k"`'~>
n,ECLfsq++JcDSH!W0mi\H)$cs*t~>
n,EB[f`2";JcDSH!Uh_q!!'e&s*t~>
n,EB[f`2";JcDSH!Uh_q!!'e&s*t~>
mf*:1fsq+<JcDVI!7TW3!7UB9J,~>
mf*8Pf`2#&JcDVI!+=I[!+>6pJ,~>
mf*8Pf`2#&JcDVI!+=I[!+>6pJ,~>
mf*:XfXV"MJcD\K!9MnE!PS3ps*t~>
mf*:5fDkodJcD\K!2%pE!>+/Vs*t~>
mf*:5fDkodJcD\K!2%pE!>+/Vs*t~>
mJd1=fsq-sqgndIrrM](fsq+<mJh\~>
mJd0*f`2$amt(M=rrLFWf`2#%mJh\~>
mJd0*f`2$amt(M=rrLFWf`2#%mJh\~>
mJd4a^"Kpr`e"/jrrN#6fsq+"m/MS~>
mJd4U&D7$`0S08)rrMR2f`2!pm/MS~>
mJd4U&D7$`0S08)rrMR2f`2!pm/MS~>
m/I(IfXV"7JcDhO!70<.!:B.QJ,~>
m/I'XfDknjJcDhO!)V;J!5In#J,~>
m/I'XfDknjJcDhO!)V;J!5In#J,~>
li-t.fXV"DJcDnQ!8Q5;!7U96J,~>
li-rMfDkoDJcDnQ!.`]%!+>-mJ,~>
li-rMfDkoDJcDnQ!.`]%!+>-mJ,~>
li-tYfXV$rnq$hFrrD<9\H0D@li2J~>
li-tBfDkp`c[l,#rrB7T!!*Z"li2J~>
li-tBfDkp`c[l,#rrB7T!!*Z"li2J~>
lMgk>fXV%"qgndQrrM](fXV"HlMlA~>
lMgj6fDkppmt(MErrLFWfDkoTlMlA~>
lMgj6fDkppmt(MErrLFWfDkoTlMlA~>
l2Lb'fXV"%JcE(V!W0mh\H'h;s*t~>
l2L`;fDkn*JcE(V!Uh_p!!#:Ks*t~>
l2L`;fDkn*JcE(V!Uh_p!!#:Ks*t~>
l2LbSf=:n1JcE+W!70<.!PS3ks*t~>
l2Lb0f)PeYJcE+W!)V;J!>+/Qs*t~>
l2Lb0f)PeYJcE+W!)V;J!>+/Qs*t~>
kl1Y<f=:nCJcE1Y!8,o6!9!)@J,~>
kl1X4f)PfCJcE1Y!-$Ni!0?@DJ,~>
kl1X4f)PfCJcE1Y!-$Ni!0?@DJ,~>
kPkP%f=:nLJcE7[!9MhC!6aR*J,~>
kPkN9f)PfcJcE7[!2%jC!'o`IJ,~>
kPkN9f)PfcJcE7[!2%jC!'o`IJ,~>
kPkPQf=:pqnq$hPrrDWA\H0D@kPp&~>
kPkP.f)Pg_c[l,-rrCBs!!*Z"kPp&~>
kPkP.f)Pg_c[l,-rrCBs!!*Z"kPp&~>
k5PG:f=:q!qgnd[rrM](f=:nGk5Tr~>
k5PF2f)Pgomt(MOrrLFWf)PfSk5Tr~>
k5PF2f)Pgomt(MOrrLFWf)PfSk5Tr~>
jo5>(f=:n$JcEF`!W0mg\H't;s*t~>
jo5<Gf)Pe)JcEF`!Uh_o!!#jWs*t~>
jo5<Gf)Pe)JcEF`!Uh_o!!#jWs*t~>
jo5AT^"9dpdt.P5rrC'j\H0SEjo9i~>
jo5A=&D$m^@"J?lrr=b)!!+52jo9i~>
jo5A=&D$m^@"J?lrr=b)!!+52jo9i~>
jSo5Ef!te5JcEOc!7TN0!:AkIJ,~>
jSo4`ec5\hJcEOc!+=@X!5IUpJ,~>
jSo4`ec5\hJcEOc!+=@X!5IUpJ,~>
j8T,.f!teBJcEUe!8,l5!8QW7J,~>
j8T*eec5]BJcEUe!-$Kh!.X&/J,~>
j8T*eec5]BJcEUe!-$Kh!.X&/J,~>
j8T/W`n%[#l%/lQrrD03\H'h4s*t~>
j8T/K0\-4(YCZ_lrrA\B!!#:Ds*t~>
j8T/K0\-4(YCZ_lrrA\B!!#:Ds*t~>
ir9#Lf!tgpnq$h\rrD<7\H0D@ir=N~>
ir9#)ec5^^c[l,9rrB7R!!*Z"ir=N~>
ir9#)ec5^^c[l,9rrB7R!!*Z"ir=N~>
iVro9f!tgpnq$h^rrM](f!teFiW"E~>
iVrn=ec5^^c[l,;rrLFWec5]RiW"E~>
iVrn=ec5^^c[l,;rrLFWec5]RiW"E~>
i;Wf'f!th$qgndirrM](f!te5i;\<~>
i;WdRec5_)mt(M]rrLFWec5\hi;\<~>
i;WdRec5_)mt(M]rrLFWec5\hi;\<~>
i;WiT`n%[$`qt>ebl7_@`n%[#bMW>M~>
i;WiH0\-4)0^jSmbl7_40\-4(5i;Tl~>
i;WiH0\-4)0^jSmbl7_40\-4(5i;Tl~>
hu<`J^"0^obCT]<rrN#:f!tgpqqqF(~>
hu<`'&Cpg]5_8s[rrMRBec5^^n)+.q~>
hu<`'&Cpg]5_8s[rrMRBec5^^n)+.q~>
hZ!T;e[Y\/JcF'r!W0me\H)$Rs*t~>
hZ!SJeGoSWJcF'r!Uh_m!!'djs*t~>
hZ!SJeGoSWJcF'r!Uh_m!!'djs*t~>
h>[K(e[Y\/JcF*s!7TK/!8u]5J,~>
h>[I_eGoSWJcF*s!+==W!0>t9J,~>
h>[I_eGoSWJcF*s!+==W!0>t9J,~>
h#@Aoe[Y\8JcF0u!7TK/!7Ta'J,~>
h#@@.eGoT"JcF0u!+==W!+=U^J,~>
h#@@.eGoT"JcF0u!+==W!+=U^J,~>
h#@EP^"'XnjamH]rrCNu\H0_Ih#Dm~>
h#@ED&Cga\T7R$lrr?HW!!+eBh#Dm~>
h#@ED&Cga\T7R$lrr?HW!!+eBh#Dm~>
g]%9Ee@>S@JcF=$!8uD<!PS3]s*t~>
g]%9"e,TK@JcF=$!0>Y1!>+/Cs*t~>
g]%9"e,TK@JcF=$!0>Y1!>+/Cs*t~>
gA_07e@>S@JcFC&!9M_@!:AM?J,~>
gA_/Fe,TK@JcFC&!2%a@!5I7fJ,~>
gA_/Fe,TK@JcFC&!2%a@!5I7fJ,~>
g&D'$e@>SMJcFI(!9M_@!8uQ1J,~>
g&D%[e,TKpJcFI(!2%a@!0>h5J,~>
g&D%[e,TKpJcFI(!2%a@!0>h5J,~>
f`(rke[Y^onq$hrrrD01\H(+2s*t~>
f`(q*eGoU]c[l,OrrA\@!!$EZs*t~>
f`(q*eGoU]c[l,OrrA\@!!$EZs*t~>
f`(rpe@>Unnq$htrrD<5\H'Y$s*t~>
f`(q:e,TL\c[l,QrrB7P!!"_)s*t~>
f`(q:e,TL\c[l,QrrB7P!!"_)s*t~>
f`(rpe%#Lmnq$i!rrM](e[Y^tqq(ju~>
f`(q:df9C[c[l,SrrLFWeGoUmn(7Si~>
f`(q:df9C[c[l,SrrLFWeGoUmn(7Si~>
f`(rpd^]Clnq$i#rrM](e[Y^oo%*hk~>
f`(q:dJs:Zc[l,UrrLFWeGoU]cdr,H~>
f`(q:dJs:Zc[l,UrrLFWeGoU]cdr,H~>
f`(rpdCB:knq$i%rrM](e@>SDec1.~>
f`(q:d/X1Yc[l,WrrLFWe,TKPec1.~>
f`(q:d/X1Yc[l,WrrLFWe,TKPec1.~>
f`(rpd('1oqgne0rrM](e@>S@eGk%~>
f`(q:ci=(hmt(N$rrLFWe,TK@eGk%~>
f`(q:ci=(hmt(N$rrLFWe,TK@eGk%~>
f`(rpcaa(rqgne2rrM](e@>S.e,Op~>
f`(q:cN!u"mt(N&rrLFWe,TJVe,Op~>
f`(q:cN!u"mt(N&rrLFWe,TJVe,Op~>
f`(rpcFEtqqgne4rrM](e@>S*df4g~>
f`(q:c2[l!mt(N(rrLFWe,TJFdf4g~>
f`(q:c2[l!mt(N(rrLFWe,TJFdf4g~>
f`(rpc+*kpqgne6rrM](e@>V"qpPLp~>
f`(q:bl@bumt(N*rrLFWe,TM'n'_5d~>
f`(q:bl@bumt(N*rrLFWe,TM'n'_5d~>
f`(rpbddboqgne8rrM](e@>UsqpGFo~>
f`(q:bQ%Ytmt(N,rrLFWe,TLln'V/c~>
f`(q:bQ%Ytmt(N,rrLFWe,TLln'V/c~>
f`(rpbIIYnqgne:rrM](e@>Uno$IDe~>
f`(q:b5_Psmt(N.rrLFWe,TL\cd;]B~>
f`(q:b5_Psmt(N.rrLFWe,TL\cd;]B~>
f`(rpb..Pmqgne<rrM](e%#JLci8L~>
f`(q:aoDGrmt(N0rrLFWdf9Boci8L~>
f`(q:aoDGrmt(N0rrLFWdf9Boci8L~>
f`(rpaghGlqgne>rrM](e%#J?cMrC~>
f`(q:aT)>qmt(N2rrLFWdf9B?cMrC~>
f`(q:aT)>qmt(N2rrLFWdf9B?cMrC~>
f`(rpaLM>kqgne@rrM](e%#J?c2W:~>
f`(q:a8c5pmt(N4rrLFWdf9B?c2W:~>
f`(q:a8c5pmt(N4rrLFWdf9B?c2W:~>
f`(rpa125jqgneBrrM](e%#J2bl<1~>
f`(q:`rH,omt(N6rrLFWdf9Aebl<1~>
f`(q:`rH,omt(N6rrLFWdf9Aebl<1~>
f`(rp`jl,iqgneDrrM](e%#J-bQ!(~>
f`(q:`W-#nmt(N8rrLFWdf9AUbQ!(~>
f`(q:`W-#nmt(N8rrLFWdf9AUbQ!(~>
f`(rp`OQ#hqgneFrrM](e%#J-b5Zt~>
f`(q:`;fommt(N:rrLFWdf9AUb5Zt~>
f`(q:`;fommt(N:rrLFWdf9AUb5Zt~>
f`(rp`45ogqgneHrrM](e%#M!qo\qh~>
f`(q:_uKflmt(N<rrLFWdf9D&n&kZ\~>
f`(q:_uKflmt(N<rrLFWdf9D&n&kZ\~>
f`(rp_moffqgnbKs73kP\H0_Iao?k~>
f`(q:_Z0]kmt(K?s3D8*!!+eBao?k~>
f`(q:_Z0]kmt(K?s3D8*!!+eBao?k~>
f`(rp_RT]eqh"hKo"EM_!QP#Xs*t~>
f`(q:_>jTjmt1Q?cOeP*!ANu`s*t~>
f`(q:_>jTjmt1Q?cOeP*!ANu`s*t~>
f`(rp_79T`nq@#Do"EM_!PSBNs*t~>
f`(q:_#OKYc\2<!cOeP*!>+_?s*t~>
f`(q:_#OKYc\2<!cOeP*!>+_?s*t~>
f`(rp^psKZnqR/Fo"EM_!PS'Ds*t~>
f`(q:^]4BHc\DH#cOeP*!>*Sss*t~>
f`(q:^]4BHc\DH#cOeP*!>*Sss*t~>
f`(rp^UXBYnqd;Ho"EM_!PS'Cs*t~>
f`(q:^An9Gc\VT%cOeP*!>*Srs*t~>
f`(q:^An9Gc\VT%cOeP*!>*Srs*t~>
f`(rp^:=9Xnr!GJo"EM_!PS'Bs*t~>
f`(q:^&S0Fc\h`'cOeP*!>*Sqs*t~>
f`(q:^&S0Fc\h`'cOeP*!>*Sqs*t~>
f`(rp]t"0Wnr3SKjjCU=o#(KX~>
f`(q:]`8'Ec]%l(T@!W=cbod5~>
f`(q:]`8'Ec]%l(T@!W=cbod5~>
f`(rp]X\'VnrE_MjjCU=jhh%J~>
f`(q:]DqsDc]8#*T@!W=T>LVY~>
f`(q:]DqsDc]8#*T@!W=T>LVY~>
f`(rp]=@sUnrWkOjjCU=jh^tI~>
f`(q:])VjCc]J/,T@!W=T>CPX~>
f`(q:])VjCc]J/,T@!W=T>CPX~>
f`(rp\[__%P5bODdCB8=_#Jo~>
f`(q:\GuW%P5bNSd/X0=_#Jo~>
f`(q:\GuW%P5bNSd/X0=_#Jo~>
f`(rp\@DV$PlCaFdCB8=^]/f~>
f`(q:\,ZN$PlC`Ud/X0=^]/f~>
f`(q:\,ZN$PlC`Ud/X0=^]/f~>
f`(rp\%)M#QN$s?dCB8=^Ai]~>
f`(q:[f?E#QN$r8d/X0=^Ai]~>
f`(q:[f?E#QN$r8d/X0=^Ai]~>
f`(rpkICTAdCB8=R/[08dCB8=^&NT~>
f`(q:k5YKid/X0=R/[.od/X0=^&NT~>
f`(q:k5YKid/X0=R/[.od/X0=^&NT~>
f`(rpkICWne'Y]+i0sZGe'Y]+jh1VD~>
f`(q:k5YP_@*nrSO.-(K@*nrST=k2S~>
f`(q:k5YP_@*nrSO.-(K@*nrST=k2S~>
f`(rpkILWm!7T?+!7RJ<!7T?+!9LimJ,~>
f`(q:k5bP^!+=1S!+;>s!+=1S!2$n'J,~>
f`(q:k5bP^!+=1S!+;>s!+=1S!2$n'J,~>
f`(rpkILTl!7T?+!7RS?!W1?n\H(R!s*t~>
f`(q:k5bM]!+=1S!+;H!!UjFD!!&(ks*t~>
f`(q:k5bM]!+=1S!+;H!!UjFD!!&(ks*t~>
f`(rpkILQk!7T?+!7RYA!W0ma\H(*hs*t~>
f`(q:k5bJ\!+=1S!+;N#!Uh_i!!$E;s*t~>
f`(q:k5bJ\!+=1S!+;N#!Uh_i!!$E;s*t~>
f`(rpkILNj!7T?+!RpqArrN#:dCB8+\Gq'~>
f`(q:k5bG[!+=1S!FYAlrrMRBd/X/S\Gq'~>
f`(q:k5bG[!+=1S!FYAlrrMRBd/X/S\Gq'~>
f`(rpkILKi!7T?+!QP#6rrN#:dCB8+\,Us~>
f`(q:k5bDZ!+=1S!ANu>rrMRBd/X/S\,Us~>
f`(q:k5bDZ!+=1S!ANu>rrMRBd/X/S\,Us~>
f`(rpkILHh!7T?+!QP#8rrM]1dCB8+[f:j~>
f`(q:k5bAY!+=1S!ANu@rrLG"d/X/S[f:j~>
f`(q:k5bAY!+=1S!ANu@rrLG"d/X/S[f:j~>
f`(rpkILEg!7T?+!QP#:rrM](dCB8+[Jta~>
f`(q:k5b>X!+=1S!ANuBrrLFWd/X/S[Jta~>
f`(q:k5b>X!+=1S!ANuBrrLFWd/X/S[Jta~>
f`(rpkILBf!7T?+!Q+E/rrM](dCB84[/YX~>
f`(q:k5b;W!+=1S!?f^irrLFWd/X/r[/YX~>
f`(q:k5b;W!+=1S!?f^irrLFWd/X/r[/YX~>
f`(rpkIL?e!7T?+!PS',rrM](dCB8=Zi>O~>
f`(q:k5b8V!+=1S!>*S[rrLFWd/X0=Zi>O~>
f`(q:k5b8V!+=1S!>*S[rrLFWd/X0=Zi>O~>
f`(rpkIL<d!7T?+!PS'.rrD0-\H(`ss*t~>
f`(q:k5b5U!+=1S!>*S]rrA\<!!&Xss*t~>
f`(q:k5b5U!+=1S!>*S]rrA\<!!&Xss*t~>
f`(rpkIL9c!63Es!PRa'rrD0-\H(`rs*t~>
f`(q:k5b2T!&2e#!>)H?rrA\<!!&Xrs*t~>
f`(q:k5b2T!&2e#!>)H?rrA\<!!&Xrs*t~>
f`(rpkIL9c!6`^!!9LTf!9MS<!9LHbJ,~>
f`(q:k5b2T!'nj1!2$Xu!2%U<!2$LqJ,~>
f`(q:k5b2T!'nj1!2$Xu!2%U<!2$LqJ,~>
f`(rpkIL9c!6`Zu!9LZh!7T<*!9LEaJ,~>
f`(q:k5b2T!'ng0!2$_"!+=.R!2$IpJ,~>
f`(q:k5b2T!'ng0!2$_"!+=.R!2$IpJ,~>
f`(rpkIL9c!6`Wt!8P*a!7T<*!9LB`J,~>
f`(q:k5b2T!'nd/!._TZ!+=.R!2$FoJ,~>
f`(q:k5b2T!'nd/!._TZ!+=.R!2$FoJ,~>
f`(rpkIL9c!6`Ts!7SOZ!7T<*!9L?_J,~>
f`(q:k5b2T!'na.!+<D<!+=.R!2$CnJ,~>
f`(q:k5b2T!'na.!+<D<!+=.R!2$CnJ,~>
f`(rpkIL9c!6`Qr!7SX]!W0m`\H(`ms*t~>
f`(q:k5b2T!'n^-!+<M?!Uh_h!!&Xms*t~>
f`(q:k5b2T!'n^-!+<M?!Uh_h!!&Xms*t~>
f`(rpkIL9c!6`Nq!RLYYrrN#:d('/<X8d\~>
f`(q:k5b2T!'n[,!Dr7#rrMRBci='<X8d\~>
f`(q:k5b2T!'n[,!Dr7#rrMRBci='<X8d\~>
f`(rpkIL9c!6`Kp!QP#RrrMi5dCB:kl)Oc6~>
f`(q:k5b2T!'nX+!ANuZrrM"2d/X1YYH%VQ~>
f`(q:k5b2T!'nX+!ANuZrrM"2d/X1YYH%VQ~>
f`(rpkIL9c!6`Ho!QP#TrrM](dCB:knu;Y>~>
f`(q:k5b2T!'nU*!ANu\rrLFWd/X1Yc`-qp~>
f`(q:k5b2T!'nU*!ANu\rrLFWd/X1Yc`-qp~>
f`(rpkIL9c!6`En!Q+EIrrM](dCB:knu2S=~>
f`(q:k5b2T!'nR)!?f_.rrLFWd/X1Yc`$ko~>
f`(q:k5b2T!'nR)!?f_.rrLFWd/X1Yc`$ko~>
f`(rpkIL9c!6b/J!U7;F\H0D7aSu;*^!X@k^%/*$J,~>
f`(q:k5b2T!'p;Z!O!'^!!*YWaSu:E&CCIY&C79SJ,~>
f`(q:k5b2T!'p;Z!O!'^!!*YWaSu:E&CCIY&C79SJ,~>
f`(rpkIL9c!6b/J!rqi)dCB:ko#gt4jj:O=^%/'#J,~>
f`(q:k5b2T!'p;Z!rpRXd/X1YccZ7fT?mQ=&C76RJ,~>
f`(q:k5b2T!'p;Z!rpRXd/X1YccZ7fT?mQ=&C76RJ,~>
f`(rpkIL9c!6b/Js8N,j^!O:ijim`)jj:O=_XaQ'J,~>
f`(q:k5b2T!'p;Zs8N,G&C:CWT?R<8T?mQ=+O?naJ,~>
f`(q:k5b2T!'p;Zs8N,G&C:CWT?R<8T?mQ=+O?naJ,~>
f`(rpkIL9c!6b/Jrr3#i^!O:ijj*l+f[./0`quS3J,~>
f`(q:k5b2T!'p;Zrr3#F&C:CWT?dH:E6nRc0^kh;J,~>
f`(q:k5b2T!'p;Zrr3#F&C:CWT?dH:E6nRc0^kh;J,~>
f`(rpkIL9c!6b/JrVloh^!O:igsH'$e'PW+`quP2J,~>
f`(q:k5b2T!'p;ZrVloE&C:CWJC+;r@*elS0^ke:J,~>
f`(q:k5b2T!'p;ZrVloE&C:CWJC+;r@*elS0^ke:J,~>
f`(rpkIL9c!6b/Jr;Qc?caa&)e,KIGe'PW+`quM1J,~>
f`(q:k5b2T!'p;Zr;Qa^cN!rQe,KI;@*elS0^kb9J,~>
f`(q:k5b2T!'p;Zr;Qa^cN!rQe,KI;@*elS0^kb9J,~>
f`(rpkIL9c!6b/Jr;Qc?cFEr(ec,[I`mD6s`quJ0J,~>
f`(q:k5b2T!'p;Zr;Qa^c2[iPec,[=0[Ke#0^k_8J,~>
f`(q:k5b2T!'p;Zr;Qa^c2[iPec,[=0[Ke#0^k_8J,~>
f`(rpkIL9c!6b/Jr;Qc?c+*kpqq1oLqo7!n!7RS?J,~>
f`(q:k5b2T!'p;Zr;Qa^bl@bun(@X@mkE)g!+;H!J,~>
f`(q:k5b2T!'p;Zr;Qa^bl@bun(@X@mkE)g!+;H!J,~>
f`(rpkIL9c!6b/Jr;Qc?bddboqqD&No#B%e!7RP>J,~>
f`(q:k5b2T!'p;Zr;Qa^bQ%Ytn(RdBcS3]G!+;DuJ,~>
f`(q:k5b2T!'p;Zr;Qa^bQ%Ytn(RdBcS3]G!+;DuJ,~>
f`(rpkIL9c!6b/Jr;Qc?bIIYnp>#ZKo"ED\!7RM=J,~>
f`(q:k5b2T!'p;Zr;Qa^b5_Pshq\54cOeG'!+;AtJ,~>
f`(q:k5b2T!'p;Zr;Qa^b5_Pshq\54cOeG'!+;AtJ,~>
f`(rpkIL9c!6b/Jr;Qc?b..Pdo%sBIo"ED\!8*hAJ,~>
f`(q:k5b2T!'p;Zr;Qa^aoDGRcee[&cOeG'!-"J.J,~>
f`(q:k5b2T!'p;Zr;Qa^aoDGRcee[&cOeG'!-"J.J,~>
f`(rpkIL9c!6b/Jr;Qc?aghGco&0NJjj1I;jdZ:#~>
f`(q:k5b2T!'p;Zr;Qa^aT)>Qcf"g'T?dK;T:>k2~>
f`(q:k5b2T!'p;Zr;Qa^aT)>Qcf"g'T?dK;T:>k2~>
f`(rpkIL9c!6b/Jr;Qc?aLM>bjl6:?jj1I;jdQ4"~>
f`(q:k5b2T!'p;Zr;Qa^a8c5PTAokNT?dK;T:5e1~>
f`(q:k5b2T!'p;Zr;Qa^a8c5PTAokNT?dK;T:5e1~>
f`(rpkIL9c!6b/Jr;Qc?`jl*2jSo58caa&;RK%d~>
f`(q:k5b2T!'p;Zr;Qa^`W-"2jSo41cN!s;RK%d~>
f`(q:k5b2T!'p;Zr;Qa^`W-"2jSo41cN!s;RK%d~>
f`(rpkIL9c!6b/Jr;Qc?`OQ!(k5PG1d('1jm?mp(~>
f`(q:k5b2T!'p;Zr;Qa^`;fmgk5PEhci=(X^R5%O~>
f`(q:k5b2T!'p;Zr;Qa^`;fmgk5PEhci=(X^R5%O~>
f`(rpkIL9c!6b/Jr;Qc?`45lsl2Le]e'PW+^%.NiJ,~>
f`(q:k5b2T!'p;Zr;Qa^_uKdFl2LeQ@*elS&C6^CJ,~>
f`(q:k5b2T!'p;Zr;Qa^_uKdFl2LeQ@*elS&C6^CJ,~>
f`(rpkIL9c!6b/Jr;Qc?_mocrli."_`mD6s^%.KhJ,~>
f`(q:k5b2T!'p;Zr;Qa^_Z0[Eli."S0[Ke#&C6[BJ,~>
f`(q:k5b2T!'p;Zr;Qa^_Z0[Eli."S0[Ke#&C6[BJ,~>
f`(rpkIL9c!6b/Jr;Qc?_RT]eqsOIbqo7!n!QOhus*t~>
f`(q:k5b2T!'p;Zr;Qa^_>jTjn*^2VmkE)g!ANDrs*t~>
f`(q:k5b2T!'p;Zr;Qa^_>jTjn*^2VmkE)g!ANDrs*t~>
f`(rpkIL9c!6b/Jr;Qc?_79TdqsaUdo"rba!QP#$s*t~>
f`(q:k5b2T!'p;Zr;Qa^_#OKin*p>XcQLR7!ANu,s*t~>
f`(q:k5b2T!'p;Zr;Qa^_#OKin*p>XcQLR7!ANu,s*t~>
f`(rpkIL9c!6b/Jr;Qc?^psKco()e]o"ED\!QP##s*t~>
f`(q:k5b2T!'p;Zr;Qa^^]4Bhcgq):cOeG'!ANu+s*t~>
f`(q:k5b2T!'p;Zr;Qa^^]4Bhcgq):cOeG'!ANu+s*t~>
f`(rpkIL9c!6b/Jr;Qc?^UXBYo(;q_m_-uX!Rpq/s*t~>
f`(q:k5b2T!'p;Zr;Qa^^An9Gch.5<^C\`l!FYAZs*t~>
f`(q:k5b2T!'p;Zr;Qa^^An9Gch.5<^C\`l!FYAZs*t~>
f`(rpkIL9c!6b/Jr;Qc?^:=9Xo(N(`jj1I;duaT[~>
f`(q:k5b2T!'p;Zr;Qa^^&S0Fch@A=T?dK;@$(D=~>
f`(q:k5b2T!'p;Zr;Qa^^&S0Fch@A=T?dK;@$(D=~>
f`(rpkIL9c!6b/Jr;Qc?]X\%(q#:?Ucaa&)O8j_~>
f`(q:k5b2T!'p;Zr;Qa^]Dqr(q#:>dcN!rQO8j_~>
f`(q:k5b2T!'p;Zr;Qa^]Dqr(q#:>dcN!rQO8j_~>
f`(rpkIL9c!6b/Jr;Qc?]=@q'qYpQJcaa&;NrOV~>
f`(q:k5b2T!'p;Zr;Qa^])Vi'qYpP7cN!s;NrOV~>
f`(q:k5b2T!'p;Zr;Qa^])Vi'qYpP7cN!s;NrOV~>
f`(rpkIL9c!6b/Jr;Qc?]"%grr;QcGcaa&;NW4M~>
f`(q:k5b2T!'p;Zr;Qa^\c;_\r;Qb)cN!s;NW4M~>
f`(q:k5b2T!'p;Zr;Qa^\c;_\r;Qb)cN!s;NW4M~>
f`(rpkIL9c!6b/Jr;Qc?m(!,Fcaa2-s8VuFd('1jjc'4i~>
f`(q:k5b2T!'p;Zr;Qa^li7#ncN")Us8VOqci=(XT8`f#~>
f`(q:k5b2T!'p;Zr;Qa^li7#ncN")Us8VOqci=(XT8`f#~>
f`(rpkIL9c!6b/Jr;Qc?m(!/ajj1I=e,./3\H0D7MuS;~>
f`(q:k5b2T!'p;Zr;Qa^li7($T?dK=@.,er!!*YWMuS;~>
f`(q:k5b2T!'p;Zr;Qa^li7($T?dK=@.,er!!*YWMuS;~>
f`(rpkIL9c!6b/Jr;Qc?m(!5cs6[Lk\H0D7MZ82~>
f`(q:k5b2T!'p;Zr;Qa^li7.&s1],:!!*YWMZ82~>
f`(q:k5b2T!'p;Zr;Qa^li7.&s1],:!!*YWMZ82~>
f`(rpkIL9c!6b/Jr;Qc?m(!8ds8VZ'TXb*CnqmBs~>
f`(q:k5b2T!'p;Zr;Qa^li71's8UCVTE#!Hc\_[P~>
f`(q:k5b2T!'p;Zr;Qa^li71's8UCVTE#!Hc\_[P~>
f`(rpkIL9c!6b/Jr;Qc?m(!,`rr3#i_P4RA`qtSlJ,~>
f`(q:k5b2T!'p;Zr;Qa^li7%#rr3#F+JJi:0^jhtJ,~>
f`(q:k5b2T!'p;Zr;Qa^li7%#rr3#F+JJi:0^jhtJ,~>
f`(rpkIL9c!6b/Jr;Qc?m(!,`rVloq`h^-G`qtPkJ,~>
f`(q:k5b2T!'p;Zr;Qa^li7%#rVloe0Ve[L0^jesJ,~>
f`(q:k5b2T!'p;Zr;Qa^li7%#rVloe0Ve[L0^jesJ,~>
f`(rpkIL9c!6b/Jr;Qc?m(!,`r;Qfp`hp9HdtRgP~>
f`(q:k5b2T!'p;Zr;Qa^li7%#r;Qfd0W"gM@"nW2~>
f`(q:k5b2T!'p;Zr;Qa^li7%#r;Qfd0W"gM@"nW2~>
f`(rpkIL9c!6b/Jr;Qc?m(!,`qu6]oe#9eWdtIaO~>
f`(q:k5b2T!'p;Zr;Qa^li7%#qu6]c@&O&*@"eQ1~>
f`(q:k5b2T!'p;Zr;Qa^li7%#qu6]c@&O&*@"eQ1~>
f`(rpkIL9c!6b/Jr;Qc?m(!,`q>UHDWOW#rK`?Q~>
f`(q:k5b2T!'p;Zr;Qa^li7%#q>UG&W;lq5K`?Q~>
f`(q:k5b2T!'p;Zr;Qa^li7%#q>UG&W;lq5K`?Q~>
f`(rpkIL9c!6b/Jr;Qc?m(!,`q#:?HWjr,sK`?Q~>
f`(q:k5b2T!'p;Zr;Qa^li7%#q#:>5WW3%6K`?Q~>
f`(q:k5b2T!'p;Zr;Qa^li7%#q#:>5WW3%6K`?Q~>
f`(rpkd^],p&>$8ppp>&!6a`>!:BO\!9L8l!:>I>J,~>
f`(q:kPtSop&>"Wp]16l!'olN!5J:.!2$:l!5F3eJ,~>
f`(q:kPtSop&>"Wp]16l!'olN!5J:.!2$:l!5F3eJ,~>
f`(rpkd^]:p&>$8ppp>&!6a`>!:BL[!9L;m!:>I>J,~>
f`(q:kPtTJp&>"Wp]16l!'olN!5J7-!2$=m!5F3eJ,~>
f`(q:kPtTJp&>"Wp]16l!'olN!5J7-!2$=m!5F3eJ,~>
f`(s,kd^]Gp&>$8ppp>&!6a`>!:BIZ!U[S'\H)#Ms*t~>
f`(r$kPtU%p&>"Wp]16l!'olN!5J4,!P]2K!!'ces*t~>
f`(r$kPtU%p&>"Wp]16l!'olN!5J4,!P]2K!!'ces*t~>
f`(sBkd^]Xp&>$8ppp>&!6a`>!:BFY!V3q-\H)#Ms*t~>
f`(rtkPtUdp&>"Wp]16l!'olN!5J1+!RD=\!!'ces*t~>
f`(rtkPtUdp&>"Wp]16l!'olN!5J1+!RD=\!!'ces*t~>
fDbiflF?o.o`"p7ppp>&!6a`>!:BCX!V4+3\H)#Ms*t~>
fDbgnl2Ueqo`"nVp]16l!'olN!5J.*!RDmm!!'ces*t~>
fDbgnl2Ueqo`"nVp]16l!'olN!5J.*!RDmm!!'ces*t~>
fDbj/lF?oMo`"p7ppp>&!6a`>!:B@W!W0mA\H)#Ms*t~>
fDbi3l2Ug6o`"nVp]16l!'olN!5J+)!Uh_I!!'ces*t~>
fDbi3l2Ug6o`"nVp]16l!'olN!5J+)!Uh_I!!'ces*t~>
f)G`em(!/1qt0mgbP8XGrrC7/\H)$errN#:ZFKu&K`?Q~>
f)G^mli7%tn+?V[5kk?Wrr>=N!!'e(rrMRBZ2am>K`?Q~>
f)G^mli7%tn+?V[5kk?Wrr>=N!!'e(rrMRBZ2am>K`?Q~>
f)Ga@m(!,\oD\g6ppp>&!6a`>!:B:U!W1?P\H)#Ms*t~>
f)G`rli7$hoD\eUp]16l!'olN!5J%'!UjF&!!'ces*t~>
f)G`rli7$hoD\eUp]16l!'olN!5J%'!UjF&!!'ces*t~>
ec,X2m^W>Zo)A^5ppp>&!6a`>!:B4S!7S<c!:>I>J,~>
ec,WAmJm6Zo)A\Tp]16l!'olN!5It%!+</6!5F3eJ,~>
ec,WAmJm6Zo)A\Tp]16l!'olN!5It%!+</6!5F3eJ,~>
eGfO1n@8P\nc&U4ppp>&!6a`>!:B1R!8+]i!:>I>J,~>
eGfN@n,NH\nc&SSp]16l!'olN!5Iq$!-#=G!5F3eJ,~>
eGfN@n,NH\nc&SSp]16l!'olN!5Iq$!-#=G!5F3eJ,~>
e,KI>_XtA>_X6jm!6b/Jr;Qc?m(!,`m/I(I[^cD*K`?Q~>
e,KHp+S5X7+M[FG!'p;Zr;Qa^li7%#m/I'X[K$<BK`?Q~>
e,KHp+S5X7+M[FG!'p;Zr;Qa^li7%#m/I'X[K$<BK`?Q~>
dJj7/_YCYC_VG%WrrC7;\buI-bNub>mHacPji=n4^!H;\!:>I>J,~>
dJj6>+SYp<+FikKrr>=Z!;uis5jSIN^[(n"T>pp4&5_ru!5F3eJ,~>
dJj6>+SYp<+FikKrr>=Z!;uis5jSIN^[(n"T>pp4&5_ru!5F3eJ,~>
ci4(;gs>rB!Sm)/rrC7;\buI-bNub>mHX]PmCgZQ!kn0[o=4kgK`?Q~>
ci4'mIo-)/!IqlNrr>=Z!;uis5jSIN^Zth"^C\Nf!YE\-o)Jd*K`?Q~>
ci4'mIo-)/!IqlNrr>=Z!;uis5jSIN^Zth"^C\Nf!YE\-o)Jd*K`?Q~>
Z2XgIppp>&!6a`>!:B%N!V3qJ\HBkBs4m4V!:>I>J,~>
Z2Xehp]16l!'olN!5Idu!RD>$!!=q$s*sV?!5F3eJ,~>
Z2Xehp]16l!'olN!5Idu!RD>$!!=q$s*sV?!5F3eJ,~>
Z2XgIppp>&!6a`>!:B"M!V4+Q\HKqLs8UmG\H)#Ms*t~>
Z2Xehp]16l!'olN!5Iat!RDn6!!G"Es8RT?!!'ces*t~>
Z2Xehp]16l!'olN!5Iat!RDn6!!G"Es8RT?!!'ces*t~>
Z2XgIppp>&!6a`>!:AtL!W0m`\H0_Irr2uRo=4kgK`?Q~>
Z2Xehp]16l!'olN!5I^s!Uh_h!!+eBrr2tJo)Jd*K`?Q~>
Z2Xehp]16l!'olN!5I^s!Uh_h!!+eBrr2tJo)Jd*K`?Q~>
Z2XgIppp>&!6a`>!:AqK!W0mb\H'YIrrCjG\H)#Ms*t~>
Z2Xehp]16l!'olN!5I[r!Uh_j!!"_Nrr@Q?!!'ces*t~>
Z2Xehp]16l!'olN!5I[r!Uh_j!!"_Nrr@Q?!!'ces*t~>
Z2XgIppp>&!6a`>!:AnJ!W1?p\H'hNrrCjG\H)#Ms*t~>
Z2Xehp]16l!'olN!5IXq!UjFF!!#:^rr@Q?!!'ces*t~>
Z2Xehp]16l!'olN!5IXq!UjFF!!#:^rr@Q?!!'ces*t~>
Z2XgIppp>&!6a`>!:AhH!7TH.!6b<?!8R1V!:>I>J,~>
Z2Xehp]16l!'olN!5IRo!+=:V!'pJ^!.XS?!5F3eJ,~>
Z2Xehp]16l!'olN!5IRo!+=:V!'pJ^!.XS?!5F3eJ,~>
Z2XgIppp>&!6a`>!:AeG!7TK/!6b<?!8R1V!:>I>J,~>
Z2Xehp]16l!'olN!5IOn!+==W!'pJ^!.XS?!5F3eJ,~>
Z2Xehp]16l!'olN!5IOn!+==W!'pJ^!.XS?!5F3eJ,~>
Z2XgIppp>&!6a`>!:AbF!9MeB!6b<?!8R1V!:>I>J,~>
Z2Xehp]16l!'olN!5ILm!2%gB!'pJ^!.XS?!5F3eJ,~>
Z2Xehp]16l!'olN!5ILm!2%gB!'pJ^!.XS?!5F3eJ,~>
Z2XgIppp>&!6a`>!:A_E!9MhC!6b<?!8R1V!:>I>J,~>
Z2Xehp]16l!'olN!5IIl!2%jC!'pJ^!.XS?!5F3eJ,~>
Z2Xehp]16l!'olN!5IIl!2%jC!'pJ^!.XS?!5F3eJ,~>
Z2XgIppp>&!6a`>!:A\D!U7;N\H'hNrrCjG\H)#Ms*t~>
Z2Xehp]16l!'olN!5IFk!O!'f!!#:^rr@Q?!!'ces*t~>
Z2Xehp]16l!'olN!5IFk!O!'f!!#:^rr@Q?!!'ces*t~>
Z2XgIppp>&!6a`>!:AYC!V3qX\H'hNrrCjG\H)#Ms*t~>
Z2Xehp]16l!'olN!5ICj!RD>2!!#:^rr@Q?!!'ces*t~>
Z2Xehp]16l!'olN!5ICj!RD>2!!#:^rr@Q?!!'ces*t~>
Z2XgIppp>&!6a`>!:AVB!V3qY\H'hNrrCjG\H)#Ms*t~>
Z2Xehp]16l!'olN!5I@i!RD>3!!#:^rr@Q?!!'ces*t~>
Z2Xehp]16l!'olN!5I@i!RD>3!!#:^rr@Q?!!'ces*t~>
Z2XgIppp>&!6a`>!:ASA!V47m\H'YE\H'hNrrCjG\H)#Ms*t~>
Z2Xehp]16l!'olN!5I=h!REI^!!"_J!!#:^rr@Q?!!'ces*t~>
Z2Xehp]16l!'olN!5I=h!REI^!!"_J!!#:^rr@Q?!!'ces*t~>
Z2XgIppp>&!6a`>!:AP@!W0n#\H0nNppgCJr;QcPo=4kgK`?Q~>
Z2Xehp]16l!'olN!5I:g!Uh`+!!,@Rp](:Zr;QbHo)Jd*K`?Q~>
Z2Xehp]16l!'olN!5I:g!Uh`+!!,@Rp](:Zr;QbHo)Jd*K`?Q~>
Z2XgIppp>&!6a`>!:AM?!W0n%\H:7[s7j,)bP_A?h"/&Vm=bLi~>
Z2Xehp]16l!'olN!5I7f!Uh`-!!6R.s7cQo5lCW^J+EX?^P)W;~>
Z2Xehp]16l!'olN!5I7f!Uh`-!!6R.s7cQo5lCW^J+EX?^P)W;~>
Z2XgIppp>&!6a`>!:AJ>!W1@4\H(+Xs7j,)bP_A?h"/&Vm=bLi~>
Z2Xehp]16l!'olN!5I4e!UjF_!!$F+s7cQo5lCW^J+EX?^P)W;~>
Z2Xehp]16l!'olN!5I4e!UjF_!!$F+s7cQo5lCW^J+EX?^P)W;~>
Z2XgIppp>&!6a`>!:AD<!7UAH!8.8MppgCJr;QcPo=4kgK`?Q~>
Z2Xehp]16l!'olN!5I.c!+>3p!-%o:p](:Zr;QbHo)Jd*K`?Q~>
Z2Xehp]16l!'olN!5I.c!+>3p!-%o:p](:Zr;QbHo)Jd*K`?Q~>
Z2XgIppp>&!6a`>!:AA;!7UGJ!9O.YppgCJr;QcPo=4kgK`?Q~>
Z2Xehp]16l!'olN!5I+b!+>9r!2'2hp](:Zr;QbHo)Jd*K`?Q~>
Z2Xehp]16l!'olN!5I+b!+>9r!2'2hp](:Zr;QbHo)Jd*K`?Q~>
Z2XgIppp>&!6a`>!:A>:!9!FY!9O+XppgCJr;QcPo=4kgK`?Q~>
Z2Xehp]16l!'olN!5I(a!0?[N!2'/gp](:Zr;QbHo)Jd*K`?Q~>
Z2Xehp]16l!'olN!5I(a!0?[N!2'/gp](:Zr;QbHo)Jd*K`?Q~>
Z2XgIppp>&!6a`>!:A;9!9Nma!PRUks7j,)bP_A?h"/&Vm=bLi~>
Z2Xehp]16l!'olN!5I%`!2&oa!>(n"s7cQo5lCW^J+EX?^P)W;~>
Z2Xehp]16l!'olN!5I%`!2&oa!>(n"s7cQo5lCW^J+EX?^P)W;~>
Z2XgIppp>&!6a`>!:A88!9Nsc!PS("s7j,)bP_A?h"/&Vm=bLi~>
Z2Xehp]16l!'olN!5I"_!2&uc!>*TQs7cQo5lCW^J+EX?^P)W;~>
Z2Xehp]16l!'olN!5I"_!2&uc!>*TQs7cQo5lCW^J+EX?^P)W;~>
Z2XgIppp>&!6a`>!:A57!U[Ss\H0D7q#C-"!6b<?!8R1V!:>I>J,~>
Z2Xehp]16l!'olN!5Ht^!P]3B!!*YWq#C*h!'pJ^!.XS?!5F3eJ,~>
Z2Xehp]16l!'olN!5Ht^!P]3B!!*YWq#C*h!'pJ^!.XS?!5F3eJ,~>
Z2XgIppp>&!6a`>!:A26!V3r%\H0S<p]($!!6b<?!8R1V!:>I>J,~>
Z2Xehp]16l!'olN!5Hq]!RD>T!!+4gp](!g!'pJ^!.XS?!5F3eJ,~>
Z2Xehp]16l!'olN!5Hq]!RD>T!!+4gp](!g!'pJ^!.XS?!5F3eJ,~>
Z2XgIppp>&!6a`>!:A/5!V3r'\H0_IpAaou!6b<?!8R1V!:>I>J,~>
Z2Xehp]16l!'olN!5Hn\!RD>V!!+eBpAamf!'pJ^!.XS?!5F3eJ,~>
Z2Xehp]16l!'olN!5Hn\!RD>V!!+eBpAamf!'pJ^!.XS?!5F3eJ,~>
Z2XgIppp>&!6a`>!:A,4"STjG`r#H/ppgCJr;QcPo=4kgK`?Q~>
Z2Xehp]16l!'olN!5Hk["Q(m50^n]7p](:Zr;QbHo)Jd*K`?Q~>
Z2Xehp]16l!'olN!5Hk["Q(m50^n]7p](:Zr;QbHo)Jd*K`?Q~>
Z2XgIppp>&!6a`>!:A)3!rLIDo`+]s!6b<?!8R1V!:>I>J,~>
Z2Xehp]16l!'olN!5HhZ!q0Oco`+[d!'pJ^!.XS?!5F3eJ,~>
Z2Xehp]16l!'olN!5HhZ!q0Oco`+[d!'pJ^!.XS?!5F3eJ,~>
Z2XgIppp>&!6a`>!:@N#ppgCJr;QcPo=4kgK`?Q~>
Z2Xehp]16l!'olN!5H8Jp](:Zr;QbHo)Jd*K`?Q~>
Z2Xehp]16l!'olN!5H8Jp](:Zr;QbHo)Jd*K`?Q~>
Z2XgIppp>&!6a`>!:@N#ppgCJr;QcPo=4kgK`?Q~>
Z2Xehp]16l!'olN!5H8Jp](:Zr;QbHo)Jd*K`?Q~>
Z2Xehp]16l!'olN!5H8Jp](:Zr;QbHo)Jd*K`?Q~>
Z2XgIppp>&!6a`>!:@N#ppgCJr;QcPo=4kgK`?Q~>
Z2Xehp]16l!'olN!5H8Jp](:Zr;QbHo)Jd*K`?Q~>
Z2Xehp]16l!'olN!5H8Jp](:Zr;QbHo)Jd*K`?Q~>
Z2XgIppp>&!6a`>!:@N#ppgCJr;QcPo=4kgK`?Q~>
Z2Xehp]16l!'olN!5H8Jp](:Zr;QbHo)Jd*K`?Q~>
Z2Xehp]16l!'olN!5H8Jp](:Zr;QbHo)Jd*K`?Q~>
Z2XgIppp>&!6a`>!:@N#ppgCJr;QcPo=4kgK`?Q~>
Z2Xehp]16l!'olN!5H8Jp](:Zr;QbHo)Jd*K`?Q~>
Z2Xehp]16l!'olN!5H8Jp](:Zr;QbHo)Jd*K`?Q~>
Z2XgIppp>&!6a`>!:@N#ppgCJr;QcPo=4kgK`?Q~>
Z2Xehp]16l!'olN!5H8Jp](:Zr;QbHo)Jd*K`?Q~>
Z2Xehp]16l!'olN!5H8Jp](:Zr;QbHo)Jd*K`?Q~>
Z2XgIppp>&!6a`>!:@N#ppgCJr;QcPo=4kgK`?Q~>
Z2Xehp]16l!'olN!5H8Jp](:Zr;QbHo)Jd*K`?Q~>
Z2Xehp]16l!'olN!5H8Jp](:Zr;QbHo)Jd*K`?Q~>
Z2XgIppp>&!6a`>!:@N#ppgCJr;QcPo=4kgK`?Q~>
Z2Xehp]16l!'olN!5H8Jp](:Zr;QbHo)Jd*K`?Q~>
Z2Xehp]16l!'olN!5H8Jp](:Zr;QbHo)Jd*K`?Q~>
Z2XgIppp>&!6a`>!:@N#ppgCJr;QcPo=4kgK`?Q~>
Z2Xehp]16l!'olN!5H8Jp](:Zr;QbHo)Jd*K`?Q~>
Z2Xehp]16l!'olN!5H8Jp](:Zr;QbHo)Jd*K`?Q~>
Z2XgIppp>&!6a`>!:@N#ppgCJr;QcPo=4kgK`?Q~>
Z2Xehp]16l!'olN!5H8Jp](:Zr;QbHo)Jd*K`?Q~>
Z2Xehp]16l!'olN!5H8Jp](:Zr;QbHo)Jd*K`?Q~>
Z2XgIppp>&!6a`>!:@N#ppgCJr;QcPo=4kgK`?Q~>
Z2Xehp]16l!'olN!5H8Jp](:Zr;QbHo)Jd*K`?Q~>
Z2Xehp]16l!'olN!5H8Jp](:Zr;QbHo)Jd*K`?Q~>
Z2XgIppp>&!6a`>!:@N#ppgCJr;QcPo=4kgK`?Q~>
Z2Xehp]16l!'olN!5H8Jp](:Zr;QbHo)Jd*K`?Q~>
Z2Xehp]16l!'olN!5H8Jp](:Zr;QbHo)Jd*K`?Q~>
Z2XgIppp>&!6a`>!:@N#ppgCJr;QcPo=4kgK`?Q~>
Z2Xehp]16l!'olN!5H8Jp](:Zr;QbHo)Jd*K`?Q~>
Z2Xehp]16l!'olN!5H8Jp](:Zr;QbHo)Jd*K`?Q~>
Z2XgIppp>&!6a`>!:@N#ppgCJr;QcPo=4kgK`?Q~>
Z2Xehp]16l!'olN!5H8Jp](:Zr;QbHo)Jd*K`?Q~>
Z2Xehp]16l!'olN!5H8Jp](:Zr;QbHo)Jd*K`?Q~>
Z2XgIppp>&!6a`>!:@N#ppgCJr;QcPo=4kgK`?Q~>
Z2Xehp]16l!'olN!5H8Jp](:Zr;QbHo)Jd*K`?Q~>
Z2Xehp]16l!'olN!5H8Jp](:Zr;QbHo)Jd*K`?Q~>
Z2XgIppp>&!6a`>!:@N#ppgCJr;QcPo=4kgK`?Q~>
Z2Xehp]16l!'olN!5H8Jp](:Zr;QbHo)Jd*K`?Q~>
Z2Xehp]16l!'olN!5H8Jp](:Zr;QbHo)Jd*K`?Q~>
Z2XgIppp>&!6a`>!:@N#ppgCJr;QcPo=4kgK`?Q~>
Z2Xehp]16l!'olN!5H8Jp](:Zr;QbHo)Jd*K`?Q~>
Z2Xehp]16l!'olN!5H8Jp](:Zr;QbHo)Jd*K`?Q~>
Z2XgIppp>&!6a`>!:@N#ppgCJr;QcPo=4kgK`?Q~>
Z2Xehp]16l!'olN!5H8Jp](:Zr;QbHo)Jd*K`?Q~>
Z2Xehp]16l!'olN!5H8Jp](:Zr;QbHo)Jd*K`?Q~>
Z2XgIppp>&!6a`>!:@N#ppgCJr;QcPo=4kgK`?Q~>
Z2Xehp]16l!'olN!5H8Jp](:Zr;QbHo)Jd*K`?Q~>
Z2Xehp]16l!'olN!5H8Jp](:Zr;QbHo)Jd*K`?Q~>
Z2XgIppp>&!6a`>!:@N#ppgCJr;QcPo=4kgK`?Q~>
Z2Xehp]16l!'olN!5H8Jp](:Zr;QbHo)Jd*K`?Q~>
Z2Xehp]16l!'olN!5H8Jp](:Zr;QbHo)Jd*K`?Q~>
Z2XgIppp>&!6a`>!:@N#ppgCJr;QcPo=4kgK`?Q~>
Z2Xehp]16l!'olN!5H8Jp](:Zr;QbHo)Jd*K`?Q~>
Z2Xehp]16l!'olN!5H8Jp](:Zr;QbHo)Jd*K`?Q~>
Z2XgIppp>&!6a`>!:@N#ppgCJr;QcPo=4kgK`?Q~>
Z2Xehp]16l!'olN!5H8Jp](:Zr;QbHo)Jd*K`?Q~>
Z2Xehp]16l!'olN!5H8Jp](:Zr;QbHo)Jd*K`?Q~>
Z2XgIppp>&!6a`>!:@N#ppgCJr;QcPo=4kgK`?Q~>
Z2Xehp]16l!'olN!5H8Jp](:Zr;QbHo)Jd*K`?Q~>
Z2Xehp]16l!'olN!5H8Jp](:Zr;QbHo)Jd*K`?Q~>
Z2XgIppp>&!6a`>!:@N#ppgCJr;QcPo=4kgK`?Q~>
Z2Xehp]16l!'olN!5H8Jp](:Zr;QbHo)Jd*K`?Q~>
Z2Xehp]16l!'olN!5H8Jp](:Zr;QbHo)Jd*K`?Q~>
Z2XgIppp>&!6a`>!:@N#ppgCJr;QcPo=4kgK`?Q~>
Z2Xehp]16l!'olN!5H8Jp](:Zr;QbHo)Jd*K`?Q~>
Z2Xehp]16l!'olN!5H8Jp](:Zr;QbHo)Jd*K`?Q~>
Z2XgIppp>&!6a`>!:@N#ppgCJr;QcPo=4kgK`?Q~>
Z2Xehp]16l!'olN!5H8Jp](:Zr;QbHo)Jd*K`?Q~>
Z2Xehp]16l!'olN!5H8Jp](:Zr;QbHo)Jd*K`?Q~>
Z2XgIppp>&!6a`>!:@N#ppgCJr;QcPo=4kgK`?Q~>
Z2Xehp]16l!'olN!5H8Jp](:Zr;QbHo)Jd*K`?Q~>
Z2Xehp]16l!'olN!5H8Jp](:Zr;QbHo)Jd*K`?Q~>
Z2XgIppp>&!6a`>!:@N#ppgCJr;QcPo=4kgK`?Q~>
Z2Xehp]16l!'olN!5H8Jp](:Zr;QbHo)Jd*K`?Q~>
Z2Xehp]16l!'olN!5H8Jp](:Zr;QbHo)Jd*K`?Q~>
Z2XgIppp>&!6a`>!:@N#ppgCJr;QcPo=4kgK`?Q~>
Z2Xehp]16l!'olN!5H8Jp](:Zr;QbHo)Jd*K`?Q~>
Z2Xehp]16l!'olN!5H8Jp](:Zr;QbHo)Jd*K`?Q~>
Z2XgIppp>&!6a`>!:ml(ppgCJr;QcPo=4kgK`?Q~>
Z2Xehp]16l!'olN!7/CZp](:Zr;QbHo)Jd*K`?Q~>
Z2Xehp]16l!'olN!7/CZp](:Zr;QbHo)Jd*K`?Q~>
Z2XgIppp>&!71#B^&Rl<!6b<?!8R1V!:>I>J,~>
Z2Xehp]16l!)W"^^&Rj-!'pJ^!.XS?!5F3eJ,~>
Z2Xehp]16l!)W"^^&Rj-!'pJ^!.XS?!5F3eJ,~>
Z2XgIppp>&!9!7T!62_PppgCJr;QcPo=4kgK`?Q~>
Z2Xehp]16l!0?LI!&2+dp](:Zr;QbHo)Jd*K`?Q~>
Z2Xehp]16l!0?LI!&2+dp](:Zr;QbHo)Jd*K`?Q~>
Z2XgIppp>&!;>fj!8tQjppgCJr;QcPo=4kgK`?Q~>
Z2Xehp]16l!8m/D!0=hnp](:Zr;QbHo)Jd*K`?Q~>
Z2Xehp]16l!8m/D!0=hnp](:Zr;QbHo)Jd*K`?Q~>
Z2XgIppp;%!6aiA!PSBDs7j,)bP_A?h"/&Vm=bLi~>
Z2Xehp]13k!'ouQ!>+_5s7cQo5lCW^J+EX?^P)W;~>
Z2Xehp]13k!'ouQ!>+_5s7cQo5lCW^J+EX?^P)W;~>
Z2XgIppp;%!:oTh!8P6eppgCJr;QcPo=4kgK`?Q~>
Z2Xehp]13k!71*6!.VZ]p](:Zr;QbHo)Jd*K`?Q~>
Z2Xehp]13k!71*6!.VZ]p](:Zr;QbHo)Jd*K`?Q~>
Z2XgIppp8$!9!CX!62YNppgCJr;QcPo=4kgK`?Q~>
Z2Xehp]10j!0?XM!&2%bp](:Zr;QbHo)Jd*K`?Q~>
Z2Xehp]10j!0?XM!&2%bp](:Zr;QbHo)Jd*K`?Q~>
Z2XgIppp5#!7UPM!QP#Ks7j,)bP_A?h"/&Vm=bLi~>
Z2Xehp]1-i!+>Bu!ANuSs7cQo5lCW^J+EX?^P)W;~>
Z2Xehp]1-i!+>Bu!ANuSs7cQo5lCW^J+EX?^P)W;~>
Z2XgIppp2"!Th#g\H1@[])VQ9!6b<?!8R1V!:>I>J,~>
Z2Xehp]1*h!M9qs!!.'-])VO*!'pJ^!.XS?!5F3eJ,~>
Z2Xehp]1*h!M9qs!!.'-])VO*!'pJ^!.XS?!5F3eJ,~>
Z2XgIppp/!!qt*VqRHXQmC<2k\H'hNrrCjG\H)#Ms*t~>
Z2Xehp]1'g!oIAsq>^Om^UX==!!#:^rr@Q?!!'ces*t~>
Z2Xehp]1'g!oIAsq>^Om^UX==!!#:^rr@Q?!!'ces*t~>
Z2XgIppp%s!:Ba?!U9<ds7j,)bP_A?h"/&Vm=bLi~>
Z2Xehp]0sd!5JJ^!O(Chs7cQo5lCW^J+EX?^P)W;~>
Z2Xehp]0sd!5JJ^!O(Chs7cQo5lCW^J+EX?^P)W;~>
Z2XgIppm.!ppgCJr;QcPo=4kgK`?Q~>
Z2Xehp].&gp](:Zr;QbHo)Jd*K`?Q~>
Z2Xehp].&gp](:Zr;QbHo)Jd*K`?Q~>
Z2XgIppm.!ppgCJr;QcPo=4kgK`?Q~>
Z2Xehp].&gp](:Zr;QbHo)Jd*K`?Q~>
Z2Xehp].&gp](:Zr;QbHo)Jd*K`?Q~>
Z2XgIppm.!ppgCJr;QcPo=4kgK`?Q~>
Z2Xehp].&gp](:Zr;QbHo)Jd*K`?Q~>
Z2Xehp].&gp](:Zr;QbHo)Jd*K`?Q~>
Z2XgIppm.!ppgCJr;QcPo=4kgK`?Q~>
Z2Xehp].&gp](:Zr;QbHo)Jd*K`?Q~>
Z2Xehp].&gp](:Zr;QbHo)Jd*K`?Q~>
Z2XgIppm.!ppgCJr;QcPo=4kgK`?Q~>
Z2Xehp].&gp](:Zr;QbHo)Jd*K`?Q~>
Z2Xehp].&gp](:Zr;QbHo)Jd*K`?Q~>
Z2XgIppm.!ppgCJr;QcPo=4kgK`?Q~>
Z2Xehp].&gp](:Zr;QbHo)Jd*K`?Q~>
Z2Xehp].&gp](:Zr;QbHo)Jd*K`?Q~>
Z2XgIppm.!ppgCJr;QcPo=4kgK`?Q~>
Z2Xehp].&gp](:Zr;QbHo)Jd*K`?Q~>
Z2Xehp].&gp](:Zr;QbHo)Jd*K`?Q~>
Z2XgIppm.!ppgCJr;QcPo=4kgK`?Q~>
Z2Xehp].&gp](:Zr;QbHo)Jd*K`?Q~>
Z2Xehp].&gp](:Zr;QbHo)Jd*K`?Q~>
Z2XgIppm.!ppgCJr;QcPo=4klK`?Q~>
Z2Xehp].&gp](:Zr;QbHo)Jd:K`?Q~>
Z2Xehp].&gp](:Zr;QbHo)Jd:K`?Q~>
Z2XgIppm.!ppgCJr;QcfoXOt8KE$H~>
Z2Xehp].&gp](:Zr;QcCoDek&KE$H~>
Z2Xehp].&gp](:Zr;QcCoDek&KE$H~>
Z2XgIppm.!ppgCJqu6Z5osk(OKE$H~>
Z2Xehp].&gp](:Zqu6X=o`+u"KE$H~>
Z2Xehp].&gp](:Zqu6X=o`+u"KE$H~>
Z2XgIppm.!ppgCJqu6Z\p:14;qh+p!~>
Z2Xehp].&gp](:Zqu6Z"p&G+)mt:Xj~>
Z2Xehp].&gp](:Zqu6Z"p&G+)mt:Xj~>
Z2XgIppm.!ppgCJqYpQRppgF=nq-ml~>
Z2Xehp].&gp](:ZqYpPVp](=+c[u1I~>
Z2Xehp].&gp](:ZqYpPVp](=+c[u1I~>
Z2XgIppm.!ppgCJq>UK[^&,>@`q"]\J,~>
Z2Xehp].&gp](:Zq>UK!&GlG.0[G=MJ,~>
Z2Xehp].&gp](:Zq>UK!&GlG.0[G=MJ,~>
Z2XgIppm.!ppgCJq#:QqjjVDrf]dtes8RT~>
Z2Xehp].&gp](:Zq#:QeT3soLE3Fims8RT~>
Z2Xehp].&gp](:Zq#:QeT3soLE3Fims8RT~>
Z2XgIppm.!ppgCJJcG3=J,~>
Z2Xehp].&gp](:ZJcG3=J,~>
Z2Xehp].&gp](:ZJcG3=J,~>
Z2XgIppm.!ppgCJJcG3=J,~>
Z2Xehp].&gp](:ZJcG3=J,~>
Z2Xehp].&gp](:ZJcG3=J,~>
Z2XgIppm.!ppgCJJcG3=J,~>
Z2Xehp].&gp](:ZJcG3=J,~>
Z2Xehp].&gp](:ZJcG3=J,~>
Z2XgIppm.!ppgCJJcG3=J,~>
Z2Xehp].&gp](:ZJcG3=J,~>
Z2Xehp].&gp](:ZJcG3=J,~>
Z2XgIq7-LFUAt#!!6]rnn,In~>
Z2Xehq#CCKUAsug!'l,8n,In~>
Z2Xehq#CCKUAsug!'l,8n,In~>
Z2XgVq7-LSUAt#!!6]rnn,In~>
Z2XfCq#CD&UAsug!'l,8n,In~>
Z2XfCq#CD&UAsug!'l,8n,In~>
Z2Xju^&,>@^%S3#ppgCJJcG3=J,~>
Z2Xj^&GlG.&Ds5^p](:ZJcG3=J,~>
Z2Xj^&GlG.&Ds5^p](:ZJcG3=J,~>
Yl=ap^&>JB^%.lsppgCJJcG3=J,~>
Yl=aM&H)S0&C7'Mp](:ZJcG3=J,~>
Yl=aM&H)S0&C7'Mp](:ZJcG3=J,~>
YQ"e'jkSYLqk3ua\H'g(s6ou<~>
YQ"dpT7;?On"B^U!!#98s6ou<~>
YQ"dpT7;?On"B^U!!#98s6ou<~>
JcEgkppgCJJcG3=J,~>
JcEgkp](:ZJcG3=J,~>
JcEgkp](:ZJcG3=J,~>
JcEgkppgCJJcG3=J,~>
JcEgkp](:ZJcG3=J,~>
JcEgkp](:ZJcG3=J,~>
JcEgkppgCJJcG3=J,~>
JcEgkp](:ZJcG3=J,~>
JcEgkp](:ZJcG3=J,~>
JcEgkppgCJJcG3=J,~>
JcEgkp](:ZJcG3=J,~>
JcEgkp](:ZJcG3=J,~>
JcEgkppgCJJcG3=J,~>
JcEgkp](:ZJcG3=J,~>
JcEgkp](:ZJcG3=J,~>
JcEgkppgCJJcG3=J,~>
JcEgkp](:ZJcG3=J,~>
JcEgkp](:ZJcG3=J,~>
JcEgkppgCJJcG3=J,~>
JcEgkp](:ZJcG3=J,~>
JcEgkp](:ZJcG3=J,~>
JcEgkppgCJJcG3=J,~>
JcEgkp](:ZJcG3=J,~>
JcEgkp](:ZJcG3=J,~>
JcEgkppgCJJcG3=J,~>
JcEgkp](:ZJcG3=J,~>
JcEgkp](:ZJcG3=J,~>
JcEgkppgCJJcG3=J,~>
JcEgkp](:ZJcG3=J,~>
JcEgkp](:ZJcG3=J,~>
JcEgkppgCJJcG3=J,~>
JcEgkp](:ZJcG3=J,~>
JcEgkp](:ZJcG3=J,~>
JcEgkppgCJJcG3=J,~>
JcEgkp](:ZJcG3=J,~>
JcEgkp](:ZJcG3=J,~>
JcEgkppgCJJcG3=J,~>
JcEgkp](:ZJcG3=J,~>
JcEgkp](:ZJcG3=J,~>
JcEgkppgCJJcG3=J,~>
JcEgkp](:ZJcG3=J,~>
JcEgkp](:ZJcG3=J,~>
JcEgkppgCJJcG3=J,~>
JcEgkp](:ZJcG3=J,~>
JcEgkp](:ZJcG3=J,~>
JcEgkppgCJJcG3=J,~>
JcEgkp](:ZJcG3=J,~>
JcEgkp](:ZJcG3=J,~>
JcEgkppgCJJcG3=J,~>
JcEgkp](:ZJcG3=J,~>
JcEgkp](:ZJcG3=J,~>
JcEgkppgCJJcG3=J,~>
JcEgkp](:ZJcG3=J,~>
JcEgkp](:ZJcG3=J,~>
JcEgkppgCJJcG3=J,~>
JcEgkp](:ZJcG3=J,~>
JcEgkp](:ZJcG3=J,~>
JcEgkppgCJJcG3=J,~>
JcEgkp](:ZJcG3=J,~>
JcEgkp](:ZJcG3=J,~>
JcEgkppgCJJcG3=J,~>
JcEgkp](:ZJcG3=J,~>
JcEgkp](:ZJcG3=J,~>
JcEgkppgCJJcG3=J,~>
JcEgkp](:ZJcG3=J,~>
JcEgkp](:ZJcG3=J,~>
JcEgkppgCJJcG3=J,~>
JcEgkp](:ZJcG3=J,~>
JcEgkp](:ZJcG3=J,~>
JcEgkppgCJJcG3=J,~>
JcEgkp](:ZJcG3=J,~>
JcEgkp](:ZJcG3=J,~>
JcEgkppgCJJcG3=J,~>
JcEgkp](:ZJcG3=J,~>
JcEgkp](:ZJcG3=J,~>
JcEgkppgCJJcG3=J,~>
JcEgkp](:ZJcG3=J,~>
JcEgkp](:ZJcG3=J,~>
JcEgkppgCJJcG3=J,~>
JcEgkp](:ZJcG3=J,~>
JcEgkp](:ZJcG3=J,~>
JcEgkppgCJJcG3=J,~>
JcEgkp](:ZJcG3=J,~>
JcEgkp](:ZJcG3=J,~>
JcEgkppgCJJcG3=J,~>
JcEgkp](:ZJcG3=J,~>
JcEgkp](:ZJcG3=J,~>
JcEgkppgCJJcG3=J,~>
JcEgkp](:ZJcG3=J,~>
JcEgkp](:ZJcG3=J,~>
JcEgkppgCJJcG3=J,~>
JcEgkp](:ZJcG3=J,~>
JcEgkp](:ZJcG3=J,~>
JcEgkppgCJJcG3=J,~>
JcEgkp](:ZJcG3=J,~>
JcEgkp](:ZJcG3=J,~>
JcEgk!583=!6]rnn,In~>
JcEgk!"er+!'l,8n,In~>
JcEgk!"er+!'l,8n,In~>
JcEgk!71JO!7-5rn,In~>
JcEgk!)WIk!)S7Hn,In~>
JcEgk!)WIk!)S7Hn,In~>
JcEgk!9s<i!:>@;n,In~>
JcEgk!3c1u!5F*bn,In~>
JcEgk!3c1u!5F*bn,In~>
JcEdj!7UhU!8)l&mf.e~>
JcEdj!+>[(!-!Mhmf.e~>
JcEdj!+>[(!-!Mhmf.e~>
JcEai"mO4@\]a5gs6]i:~>
JcEai"g:/k!'m`=s6]i:~>
JcEai"g:/k!'m`=s6]i:~>
JcC<$XT*e~>
JcC<$XT*e~>
JcC<$XT*e~>
JcC<$XT*e~>
JcC<$XT*e~>
JcC<$XT*e~>
JcC<$XT*e~>
JcC<$XT*e~>
JcC<$XT*e~>
JcC<$XT*e~>
JcC<$XT*e~>
JcC<$XT*e~>
JcC<$XT*e~>
JcC<$XT*e~>
JcC<$XT*e~>
JcC<$XT*e~>
JcC<$XT*e~>
JcC<$XT*e~>
JcC<$XT*e~>
JcC<$XT*e~>
JcC<$XT*e~>
%%EndData
showpage
%%Trailer
end
%%EOF
